{"content":[{"id":149383,"parentId":149383,"externalId":"TSK_1800000","header":"От двери отваливаются детали","text":"Some text 2","priority":"Низкий","createDate":1574779805180,"lastEditDate":1574779805185,"state":"Выполняется","stateId":1,"viewed":true,"syncMask":"PORTAL_ONLY","isSpecialistDate":false,"ticketState":"Выполняется","ticketStateId":1,"applicant":{"fullName":"Алексей Карчевский","userName":"master","email":"a.karchevski@pflb.ru","location":"142784, г.Москва, Киевское шоссе, 22-й км,\nБП ComCity, домовл.6, стр.1","phone":"8 (000) 123-45-67","mobilePhone":"8 (000) 123-45-67","id":106},"contractor":{"id":9,"name":"2-Ремонт","organization":"Холодильное оборудование","company":"YYY","active":true},"categories":["Технологическое оборудование","Автоматические  ворота и двери","Секционые ворота"],"category1":"Технологическое оборудование","category2":"Автоматические  ворота и двери","category3":"Секционые ворота","location":"default location","address":"default location","actions":["assignContractor","solveTicket","cancelTicket","cancelTask","inventoryNumberChange","slaDateChange","specialistDateChange","comment"]},{"id":149382,"parentId":149382,"externalId":"TSK_1800000","header":"Не работает морозильная камера (указать, какую температуру показывает)","text":"zdes' bil leha","priority":"Низкий","createDate":1574773690379,"lastEditDate":1574773690387,"state":"Выполняется","stateId":1,"viewed":true,"syncMask":"PORTAL_ONLY","files":[{"id":4675,"name":"C:\\Users\\student\\Documents\\XDesk task details\\task_detail_1.txt"}],"isSpecialistDate":false,"ticketState":"Выполняется","ticketStateId":1,"applicant":{"fullName":"Алексей Карчевский","userName":"master","email":"a.karchevski@pflb.ru","location":"142784, г.Москва, Киевское шоссе, 22-й км,\nБП ComCity, домовл.6, стр.1","phone":"8 (000) 123-45-67","mobilePhone":"8 (000) 123-45-67","id":106},"contractor":{"id":9,"name":"2-Ремонт","organization":"Холодильное оборудование","company":"YYY","active":true},"categories":["Технологическое оборудование","Холодильное оборудование","Холодильная камера"],"category1":"Технологическое оборудование","category2":"Холодильное оборудование","category3":"Холодильная камера","location":"256 Бинарная ул. 16","address":"256 Бинарная ул. 16","hasAttachments":true,"actions":["assignContractor","solveTicket","cancelTicket","cancelTask","inventoryNumberChange","slaDateChange","specialistDateChange","comment"]},{"id":149381,"parentId":149381,"externalId":"TSK_1800000","header":"Течет в местах соединения и подвода воды, нарушена прокладка","text":"testdescriptiontest","priority":"Низкий","createDate":1574769594186,"lastEditDate":1574769594191,"state":"Выполняется","stateId":1,"viewed":true,"syncMask":"PORTAL_ONLY","files":[{"id":4668,"name":"C:\\Users\\student\\Desktop\\����� ����� (2)\\Andreev123\\pc\\UC01_task_create\\dist_ru (2)(1).zip"}],"isSpecialistDate":false,"ticketState":"Выполняется","ticketStateId":1,"applicant":{"fullName":"Алексей Карчевский","userName":"master","email":"a.karchevski@pflb.ru","location":"142784, г.Москва, Киевское шоссе, 22-й км,\nБП ComCity, домовл.6, стр.1","phone":"8 (000) 123-45-67","mobilePhone":"8 (000) 123-45-67","id":106},"contractor":{"id":9,"name":"2-Ремонт","organization":"Холодильное оборудование","company":"YYY","active":true},"categories":["Инженерия","Сантехника","Кран, смеситель, душ"],"category1":"Инженерия","category2":"Сантехника","category3":"Кран, смеситель, душ","location":"default location","address":"default location","hasAttachments":true,"actions":["assignContractor","solveTicket","cancelTicket","cancelTask","inventoryNumberChange","slaDateChange","specialistDateChange","comment"]},{"id":149379,"parentId":149379,"externalId":"TSK_1800000","header":"В холодильнике разбито/сломано(указать, что именно)","text":"Some text 2","priority":"Низкий","createDate":1574768722959,"lastEditDate":1574768722965,"state":"Выполняется","stateId":1,"viewed":true,"syncMask":"PORTAL_ONLY","isSpecialistDate":false,"ticketState":"Выполняется","ticketStateId":1,"applicant":{"fullName":"Алексей Карчевский","userName":"master","email":"a.karchevski@pflb.ru","location":"142784, г.Москва, Киевское шоссе, 22-й км,\nБП ComCity, домовл.6, стр.1","phone":"8 (000) 123-45-67","mobilePhone":"8 (000) 123-45-67","id":106},"director":{"fullName":"Васильев Павел1","userName":"director_1","email":"director@mail.com","location":"location","address":"152 Скотопрогонная ул. 13","phone":"+79778334486","mobilePhone":"8 (000) 123-45-67","workPhone":"+79778334486","organization":"organization","id":101122},"contractor":{"id":9,"name":"2-Ремонт","organization":"Холодильное оборудование","company":"YYY","active":true},"categories":["Технологическое оборудование","Холодильное оборудование","Холодильная пристенная горка"],"category1":"Технологическое оборудование","category2":"Холодильное оборудование","category3":"Холодильная пристенная горка","location":"152 Скотопрогонная ул. 13","address":"152 Скотопрогонная ул. 13","actions":["assignContractor","solveTicket","cancelTicket","cancelTask","inventoryNumberChange","slaDateChange","specialistDateChange","comment"]},{"id":149376,"parentId":149376,"externalId":"TSK_1800000","header":"Засор канализации, труб в магазине","text":"MX request","priority":"Низкий","createDate":1574766323319,"lastEditDate":1574766323324,"state":"Выполняется","stateId":1,"viewed":true,"syncMask":"PORTAL_ONLY","files":[{"id":4658,"name":"C:\\Users\\student\\Documents\\mx\\LoadRunner\\XDesk\\files\\task_details_3.txt"}],"isSpecialistDate":false,"ticketState":"Выполняется","ticketStateId":1,"inventoryNumber":"000006","applicant":{"fullName":"Алексей Карчевский","userName":"master","email":"a.karchevski@pflb.ru","location":"142784, г.Москва, Киевское шоссе, 22-й км,\nБП ComCity, домовл.6, стр.1","phone":"8 (000) 123-45-67","mobilePhone":"8 (000) 123-45-67","id":106},"contractor":{"id":9,"name":"2-Ремонт","organization":"Холодильное оборудование","company":"YYY","active":true},"categories":["Инженерия","Сантехника","Канализация, трубы (слив воды)"],"category1":"Инженерия","category2":"Сантехника","category3":"Канализация, трубы (слив воды)","location":"Барклая 24","address":"Барклая 24","hasAttachments":true,"actions":["assignContractor","solveTicket","cancelTicket","cancelTask","inventoryNumberChange","slaDateChange","specialistDateChange","comment"]},{"id":149369,"parentId":149369,"externalId":"TSK_1800000","header":"Не светится вся вывеска","text":"Новая проблема Огданец","priority":"Низкий","createDate":1511190000000,"lastEditDate":1574763886130,"state":"Выполняется","stateId":1,"viewed":true,"syncMask":"PORTAL_ONLY","isSpecialistDate":false,"ticketState":"Выполняется","ticketStateId":1,"inventoryNumber":"000006","applicant":{"fullName":"Алексей Карчевский","userName":"master","email":"a.karchevski@pflb.ru","location":"142784, г.Москва, Киевское шоссе, 22-й км,\nБП ComCity, домовл.6, стр.1","phone":"8 (000) 123-45-67","mobilePhone":"8 (000) 123-45-67","id":106},"contractor":{"id":9,"name":"2-Ремонт","organization":"Холодильное оборудование","company":"YYY","active":true},"categories":["Внешняя и внутренняя реклама","Наружная световая вывеска \"\"Пятерочка\"\""],"category1":"Внешняя и внутренняя реклама","category2":"Наружная световая вывеска \"\"Пятерочка\"\"","location":"Барклая 24","address":"Барклая 24","hasAttachments":true,"actions":["assignContractor","solveTicket","cancelTicket","cancelTask","inventoryNumberChange","slaDateChange","specialistDateChange","comment"]},{"id":149367,"parentId":149367,"externalId":"TSK_1800000","header":"Посадка кустарников","text":"DTelekhin test description","priority":"Низкий","createDate":1511190000000,"lastEditDate":1574759827484,"state":"Выполняется","stateId":1,"syncMask":"PORTAL_ONLY","isSpecialistDate":false,"ticketState":"Выполняется","ticketStateId":1,"applicant":{"fullName":"Алексей Карчевский","userName":"master","email":"a.karchevski@pflb.ru","location":"142784, г.Москва, Киевское шоссе, 22-й км,\nБП ComCity, домовл.6, стр.1","phone":"8 (000) 123-45-67","mobilePhone":"8 (000) 123-45-67","id":106},"contractor":{"id":9,"name":"2-Ремонт","organization":"Холодильное оборудование","company":"YYY","active":true},"categories":["Инженерия","Отопление","Прорыв, протечка в системе отопления"],"category1":"Инженерия","category2":"Отопление","category3":"Прорыв, протечка в системе отопления","location":"256 Бинарная ул. 16","address":"256 Бинарная ул. 16","actions":["assignContractor","solveTicket","cancelTicket","cancelTask","inventoryNumberChange","slaDateChange","specialistDateChange","comment"]},{"id":149366,"parentId":149366,"externalId":"TSK_1800000","header":"Сломана кнопка подъёмника","text":"Some text 4","priority":"Низкий","createDate":1511190000000,"lastEditDate":1574759500757,"state":"Выполняется","stateId":1,"syncMask":"PORTAL_ONLY","isSpecialistDate":false,"ticketState":"Выполняется","ticketStateId":1,"applicant":{"fullName":"Алексей Карчевский","userName":"master","email":"a.karchevski@pflb.ru","location":"142784, г.Москва, Киевское шоссе, 22-й км,\nБП ComCity, домовл.6, стр.1","phone":"8 (000) 123-45-67","mobilePhone":"8 (000) 123-45-67","id":106},"contractor":{"id":9,"name":"2-Ремонт","organization":"Холодильное оборудование","company":"YYY","active":true},"categories":["Технологическое оборудование","Подъемные и передвижные механизмы","Грузовой подъёмник"],"category1":"Технологическое оборудование","category2":"Подъемные и передвижные механизмы","category3":"Грузовой подъёмник","location":"Изумрудная 14","address":"Изумрудная 14","actions":["assignContractor","solveTicket","cancelTicket","cancelTask","inventoryNumberChange","slaDateChange","specialistDateChange","comment"]},{"id":149364,"parentId":149364,"externalId":"TSK_1800000","header":"Требуется облагородить территорию (м2, посев газона)","text":"Some text 3","priority":"Низкий","createDate":1511190000000,"lastEditDate":1574759239035,"state":"Выполняется","stateId":1,"syncMask":"PORTAL_ONLY","isSpecialistDate":false,"ticketState":"Выполняется","ticketStateId":1,"applicant":{"fullName":"Алексей Карчевский","userName":"master","email":"a.karchevski@pflb.ru","location":"142784, г.Москва, Киевское шоссе, 22-й км,\nБП ComCity, домовл.6, стр.1","phone":"8 (000) 123-45-67","mobilePhone":"8 (000) 123-45-67","id":106},"contractor":{"id":9,"name":"2-Ремонт","organization":"Холодильное оборудование","company":"YYY","active":true},"categories":["Инженерия","Работы на прилегающей территории","Устройство газонов (насыпка земли, посев травы)"],"category1":"Инженерия","category2":"Работы на прилегающей территории","category3":"Устройство газонов (насыпка земли, посев травы)","location":"default location","address":"default location","actions":["assignContractor","solveTicket","cancelTicket","cancelTask","inventoryNumberChange","slaDateChange","specialistDateChange","comment"]},{"id":149362,"parentId":149362,"externalId":"TSK_1800000","header":"Посадка кустарников","text":"DTelekhin test description","priority":"Низкий","createDate":1511190000000,"lastEditDate":1574759077465,"state":"Выполняется","stateId":1,"viewed":true,"syncMask":"PORTAL_ONLY","isSpecialistDate":false,"ticketState":"Выполняется","ticketStateId":1,"applicant":{"fullName":"Алексей Карчевский","userName":"master","email":"a.karchevski@pflb.ru","location":"142784, г.Москва, Киевское шоссе, 22-й км,\nБП ComCity, домовл.6, стр.1","phone":"8 (000) 123-45-67","mobilePhone":"8 (000) 123-45-67","id":106},"director":{"fullName":"Васильев Павел1","userName":"director_1","email":"director@mail.com","location":"location","address":"152 Скотопрогонная ул. 13","phone":"+79778334486","mobilePhone":"8 (000) 123-45-67","workPhone":"+79778334486","organization":"organization","id":101122},"contractor":{"id":9,"name":"2-Ремонт","organization":"Холодильное оборудование","company":"YYY","active":true},"categories":["Технологическое оборудование","Тепловое оборудование","Печь для выпечки"],"category1":"Технологическое оборудование","category2":"Тепловое оборудование","category3":"Печь для выпечки","location":"152 Скотопрогонная ул. 13","address":"152 Скотопрогонная ул. 13","hasAttachments":true,"actions":["assignContractor","solveTicket","cancelTicket","cancelTask","inventoryNumberChange","slaDateChange","specialistDateChange","comment"]}],"last":false,"totalElements":205,"totalPages":21,"size":10,"number":0,"sort":[{"direction":"DESC","property":"id","ignoreCase":false,"nullHandling":"NATIVE","ascending":false,"descending":true}],"numberOfElements":10,"first":true}