{"content":[{"id":149812,"applicant":{"fullName":"Алексей Карчевский","userName":"master","email":"a.karchevski@pflb.ru","location":"142784, г.Москва, Киевское шоссе, 22-й км,\nБП ComCity, домовл.6, стр.1","phone":"8 (000) 123-45-67","mobilePhone":"8 (000) 123-45-67","id":106},"header":"Не характерный шум","text":"Ogdanets text 2","createDate":1575042877609,"lastEditDate":1575042877613,"ticketState":"Новый","ticketStateId":-1,"serviceId":2846,"syncMask":"PORTAL_ONLY","location":"Изумрудная 14","address":"Изумрудная 14","categories":["Инженерия","Газовое оборудование","Газовое оборудование"],"category1":"Инженерия","category2":"Газовое оборудование","category3":"Газовое оборудование","openCommunications":0,"totalCommunications":0,"actions":[]},{"id":149811,"applicant":{"fullName":"Алексей Карчевский","userName":"master","email":"a.karchevski@pflb.ru","location":"142784, г.Москва, Киевское шоссе, 22-й км,\nБП ComCity, домовл.6, стр.1","phone":"8 (000) 123-45-67","mobilePhone":"8 (000) 123-45-67","id":106},"header":"Из Шкафа течет вода","text":"Ogdanets text 5","createDate":1575042871785,"lastEditDate":1575042871789,"ticketState":"Новый","ticketStateId":-1,"serviceId":2982,"syncMask":"PORTAL_ONLY","location":"default location","address":"default location","categories":["Технологическое оборудование","Холодильное оборудование","Холодильный Шкаф на Складе"],"category1":"Технологическое оборудование","category2":"Холодильное оборудование","category3":"Холодильный Шкаф на Складе","openCommunications":0,"totalCommunications":0,"actions":[]},{"id":149810,"applicant":{"fullName":"Алексей Карчевский","userName":"master","email":"a.karchevski@pflb.ru","location":"142784, г.Москва, Киевское шоссе, 22-й км,\nБП ComCity, домовл.6, стр.1","phone":"8 (000) 123-45-67","mobilePhone":"8 (000) 123-45-67","id":106},"header":"Требуется замена (кол-во) бордюров","text":"Ogdanets text 4","createDate":1575042862258,"lastEditDate":1575042862262,"ticketState":"Новый","ticketStateId":-1,"serviceId":2879,"syncMask":"PORTAL_ONLY","location":"default location","address":"default location","categories":["Инженерия","Работы на прилегающей территории","Ремонт ограждений газонов и тротуаров"],"category1":"Инженерия","category2":"Работы на прилегающей территории","category3":"Ремонт ограждений газонов и тротуаров","openCommunications":0,"totalCommunications":0,"actions":[]},{"id":149809,"applicant":{"fullName":"Алексей Карчевский","userName":"master","email":"a.karchevski@pflb.ru","location":"142784, г.Москва, Киевское шоссе, 22-й км,\nБП ComCity, домовл.6, стр.1","phone":"8 (000) 123-45-67","mobilePhone":"8 (000) 123-45-67","id":106},"header":"Выпала рама, оторвалась петля","text":"Ogdanets text 5","createDate":1575042852958,"lastEditDate":1575042852962,"ticketState":"Новый","ticketStateId":-1,"serviceId":2861,"syncMask":"PORTAL_ONLY","location":"default location","address":"default location","categories":["Инженерия","Части здания","Окна, двери"],"category1":"Инженерия","category2":"Части здания","category3":"Окна, двери","openCommunications":0,"totalCommunications":0,"actions":[]},{"id":149808,"applicant":{"fullName":"Алексей Карчевский","userName":"master","email":"a.karchevski@pflb.ru","location":"142784, г.Москва, Киевское шоссе, 22-й км,\nБП ComCity, домовл.6, стр.1","phone":"8 (000) 123-45-67","mobilePhone":"8 (000) 123-45-67","id":106},"header":"Нет тепла от тепловой завесы","text":"Ogdanets text 4","createDate":1575042843480,"lastEditDate":1575042843484,"ticketState":"Новый","ticketStateId":-1,"serviceId":2909,"syncMask":"PORTAL_ONLY","location":"Барклая 24","address":"Барклая 24","categories":["Технологическое оборудование","Инженерное оборудование","Тепловая завеса"],"category1":"Технологическое оборудование","category2":"Инженерное оборудование","category3":"Тепловая завеса","openCommunications":0,"totalCommunications":0,"actions":[]},{"id":149807,"applicant":{"fullName":"Алексей Карчевский","userName":"master","email":"a.karchevski@pflb.ru","location":"142784, г.Москва, Киевское шоссе, 22-й км,\nБП ComCity, домовл.6, стр.1","phone":"8 (000) 123-45-67","mobilePhone":"8 (000) 123-45-67","id":106},"header":"Кондиционер не холодит","text":"Ogdanets text 4","createDate":1575042837982,"lastEditDate":1575042837986,"ticketState":"Новый","ticketStateId":-1,"serviceId":2933,"syncMask":"PORTAL_ONLY","location":"default location","address":"default location","categories":["Технологическое оборудование","Климатическое оборудование","Кондиционер"],"category1":"Технологическое оборудование","category2":"Климатическое оборудование","category3":"Кондиционер","openCommunications":0,"totalCommunications":0,"actions":[]},{"id":149806,"applicant":{"fullName":"Алексей Карчевский","userName":"master","email":"a.karchevski@pflb.ru","location":"142784, г.Москва, Киевское шоссе, 22-й км,\nБП ComCity, домовл.6, стр.1","phone":"8 (000) 123-45-67","mobilePhone":"8 (000) 123-45-67","id":106},"header":"Витрина не работает","text":"Ogdanets text 4","createDate":1575042832635,"lastEditDate":1575042832639,"ticketState":"Новый","ticketStateId":-1,"serviceId":2896,"syncMask":"PORTAL_ONLY","location":"default location","address":"default location","categories":["Технологическое оборудование","Тепловое оборудование","Тепловая витрина"],"category1":"Технологическое оборудование","category2":"Тепловое оборудование","category3":"Тепловая витрина","openCommunications":0,"totalCommunications":0,"actions":[]},{"id":149805,"applicant":{"fullName":"Алексей Карчевский","userName":"master","email":"a.karchevski@pflb.ru","location":"142784, г.Москва, Киевское шоссе, 22-й км,\nБП ComCity, домовл.6, стр.1","phone":"8 (000) 123-45-67","mobilePhone":"8 (000) 123-45-67","id":106},"header":"Течет кондиционер","text":"Ogdanets text 4","createDate":1575042823221,"lastEditDate":1575042823225,"ticketState":"Новый","ticketStateId":-1,"serviceId":2932,"syncMask":"PORTAL_ONLY","location":"Изумрудная 14","address":"Изумрудная 14","categories":["Технологическое оборудование","Климатическое оборудование","Кондиционер"],"category1":"Технологическое оборудование","category2":"Климатическое оборудование","category3":"Кондиционер","openCommunications":0,"totalCommunications":0,"actions":[]},{"id":149804,"applicant":{"fullName":"Алексей Карчевский","userName":"master","email":"a.karchevski@pflb.ru","location":"142784, г.Москва, Киевское шоссе, 22-й км,\nБП ComCity, домовл.6, стр.1","phone":"8 (000) 123-45-67","mobilePhone":"8 (000) 123-45-67","id":106},"director":{"fullName":"Васильев Павел1","userName":"director_1","email":"director@mail.com","location":"location","address":"152 Скотопрогонная ул. 13","phone":"+79778334486","mobilePhone":"8 (000) 123-45-67","workPhone":"+79778334486","organization":"organization","id":101122},"header":"Проведение дезинфекции","text":"Ogdanets text 1","createDate":1575042814072,"lastEditDate":1575042814076,"ticketState":"Новый","ticketStateId":-1,"serviceId":2811,"syncMask":"PORTAL_ONLY","location":"152 Скотопрогонная ул. 13","address":"152 Скотопрогонная ул. 13","categories":["Экология","Дератизация, Дезинсекция, Дезинфекция","Уничтожение грызунов и насекомых, Дезинфекция"],"category1":"Экология","category2":"Дератизация, Дезинсекция, Дезинфекция","category3":"Уничтожение грызунов и насекомых, Дезинфекция","openCommunications":0,"totalCommunications":0,"actions":[]},{"id":149803,"applicant":{"fullName":"Алексей Карчевский","userName":"master","email":"a.karchevski@pflb.ru","location":"142784, г.Москва, Киевское шоссе, 22-й км,\nБП ComCity, домовл.6, стр.1","phone":"8 (000) 123-45-67","mobilePhone":"8 (000) 123-45-67","id":106},"header":"Течь соединительных частей трубопроводов","text":"Ogdanets text 4","createDate":1575042805515,"lastEditDate":1575042805520,"ticketState":"Новый","ticketStateId":-1,"serviceId":2858,"syncMask":"PORTAL_ONLY","location":"default location","address":"default location","categories":["Инженерия","Отопление","Прорыв, протечка в системе отопления"],"category1":"Инженерия","category2":"Отопление","category3":"Прорыв, протечка в системе отопления","openCommunications":0,"totalCommunications":0,"actions":[]}],"last":false,"totalElements":651,"totalPages":66,"size":10,"number":0,"sort":[{"direction":"DESC","property":"id","ignoreCase":false,"nullHandling":"NATIVE","ascending":false,"descending":true}],"numberOfElements":10,"first":true}