{"content":[{"id":149807,"applicant":{"fullName":"Алексей Карчевский","userName":"master","email":"a.karchevski@pflb.ru","location":"142784, г.Москва, Киевское шоссе, 22-й км,\nБП ComCity, домовл.6, стр.1","phone":"8 (000) 123-45-67","mobilePhone":"8 (000) 123-45-67","id":106},"header":"Кондиционер не холодит","text":"Ogdanets text 4","createDate":1575042837982,"lastEditDate":1575042837986,"ticketState":"Новый","ticketStateId":-1,"serviceId":2933,"syncMask":"PORTAL_ONLY","location":"default location","address":"default location","categories":["Технологическое оборудование","Климатическое оборудование","Кондиционер"],"category1":"Технологическое оборудование","category2":"Климатическое оборудование","category3":"Кондиционер","openCommunications":0,"totalCommunications":0,"actions":[]},{"id":149806,"applicant":{"fullName":"Алексей Карчевский","userName":"master","email":"a.karchevski@pflb.ru","location":"142784, г.Москва, Киевское шоссе, 22-й км,\nБП ComCity, домовл.6, стр.1","phone":"8 (000) 123-45-67","mobilePhone":"8 (000) 123-45-67","id":106},"header":"Витрина не работает","text":"Ogdanets text 4","createDate":1575042832635,"lastEditDate":1575042832639,"ticketState":"Новый","ticketStateId":-1,"serviceId":2896,"syncMask":"PORTAL_ONLY","location":"default location","address":"default location","categories":["Технологическое оборудование","Тепловое оборудование","Тепловая витрина"],"category1":"Технологическое оборудование","category2":"Тепловое оборудование","category3":"Тепловая витрина","openCommunications":0,"totalCommunications":0,"actions":[]},{"id":149805,"applicant":{"fullName":"Алексей Карчевский","userName":"master","email":"a.karchevski@pflb.ru","location":"142784, г.Москва, Киевское шоссе, 22-й км,\nБП ComCity, домовл.6, стр.1","phone":"8 (000) 123-45-67","mobilePhone":"8 (000) 123-45-67","id":106},"header":"Течет кондиционер","text":"Ogdanets text 4","createDate":1575042823221,"lastEditDate":1575042823225,"ticketState":"Новый","ticketStateId":-1,"serviceId":2932,"syncMask":"PORTAL_ONLY","location":"Изумрудная 14","address":"Изумрудная 14","categories":["Технологическое оборудование","Климатическое оборудование","Кондиционер"],"category1":"Технологическое оборудование","category2":"Климатическое оборудование","category3":"Кондиционер","openCommunications":0,"totalCommunications":0,"actions":[]},{"id":149804,"applicant":{"fullName":"Алексей Карчевский","userName":"master","email":"a.karchevski@pflb.ru","location":"142784, г.Москва, Киевское шоссе, 22-й км,\nБП ComCity, домовл.6, стр.1","phone":"8 (000) 123-45-67","mobilePhone":"8 (000) 123-45-67","id":106},"director":{"fullName":"Васильев Павел1","userName":"director_1","email":"director@mail.com","location":"location","address":"152 Скотопрогонная ул. 13","phone":"+79778334486","mobilePhone":"8 (000) 123-45-67","workPhone":"+79778334486","organization":"organization","id":101122},"header":"Проведение дезинфекции","text":"Ogdanets text 1","createDate":1575042814072,"lastEditDate":1575042814076,"ticketState":"Новый","ticketStateId":-1,"serviceId":2811,"syncMask":"PORTAL_ONLY","location":"152 Скотопрогонная ул. 13","address":"152 Скотопрогонная ул. 13","categories":["Экология","Дератизация, Дезинсекция, Дезинфекция","Уничтожение грызунов и насекомых, Дезинфекция"],"category1":"Экология","category2":"Дератизация, Дезинсекция, Дезинфекция","category3":"Уничтожение грызунов и насекомых, Дезинфекция","openCommunications":0,"totalCommunications":0,"actions":[]},{"id":149803,"applicant":{"fullName":"Алексей Карчевский","userName":"master","email":"a.karchevski@pflb.ru","location":"142784, г.Москва, Киевское шоссе, 22-й км,\nБП ComCity, домовл.6, стр.1","phone":"8 (000) 123-45-67","mobilePhone":"8 (000) 123-45-67","id":106},"header":"Течь соединительных частей трубопроводов","text":"Ogdanets text 4","createDate":1575042805515,"lastEditDate":1575042805520,"ticketState":"Новый","ticketStateId":-1,"serviceId":2858,"syncMask":"PORTAL_ONLY","location":"default location","address":"default location","categories":["Инженерия","Отопление","Прорыв, протечка в системе отопления"],"category1":"Инженерия","category2":"Отопление","category3":"Прорыв, протечка в системе отопления","openCommunications":0,"totalCommunications":0,"actions":[]},{"id":149802,"applicant":{"fullName":"Алексей Карчевский","userName":"master","email":"a.karchevski@pflb.ru","location":"142784, г.Москва, Киевское шоссе, 22-й км,\nБП ComCity, домовл.6, стр.1","phone":"8 (000) 123-45-67","mobilePhone":"8 (000) 123-45-67","id":106},"header":"Уничтожение муравьев","text":"Ogdanets text 3","createDate":1575042797214,"lastEditDate":1575042797218,"ticketState":"Новый","ticketStateId":-1,"serviceId":2809,"syncMask":"PORTAL_ONLY","location":"default location","address":"default location","categories":["Экология","Дератизация, Дезинсекция, Дезинфекция","Уничтожение грызунов и насекомых, Дезинфекция"],"category1":"Экология","category2":"Дератизация, Дезинсекция, Дезинфекция","category3":"Уничтожение грызунов и насекомых, Дезинфекция","openCommunications":0,"totalCommunications":0,"actions":[]},{"id":149801,"applicant":{"fullName":"Алексей Карчевский","userName":"master","email":"a.karchevski@pflb.ru","location":"142784, г.Москва, Киевское шоссе, 22-й км,\nБП ComCity, домовл.6, стр.1","phone":"8 (000) 123-45-67","mobilePhone":"8 (000) 123-45-67","id":106},"header":"Ключ сломан в замке (сейф Открыт)","text":"Ogdanets text 5","createDate":1575042788323,"lastEditDate":1575042788327,"ticketState":"Новый","ticketStateId":-1,"serviceId":3002,"syncMask":"PORTAL_ONLY","location":"default location","address":"default location","categories":["Технологическое оборудование","Банковское оборудование","Сейфы"],"category1":"Технологическое оборудование","category2":"Банковское оборудование","category3":"Сейфы","openCommunications":0,"totalCommunications":0,"actions":[]},{"id":149800,"applicant":{"fullName":"Алексей Карчевский","userName":"master","email":"a.karchevski@pflb.ru","location":"142784, г.Москва, Киевское шоссе, 22-й км,\nБП ComCity, домовл.6, стр.1","phone":"8 (000) 123-45-67","mobilePhone":"8 (000) 123-45-67","id":106},"header":"Сломан замок, отсутствует ключ","text":"Ogdanets text 5","createDate":1575042779936,"lastEditDate":1575042779940,"ticketState":"Новый","ticketStateId":-1,"serviceId":3197,"syncMask":"PORTAL_ONLY","location":"Изумрудная 14","address":"Изумрудная 14","categories":["Инженерия","Камеры  хранения","Покупательские камеры  хранения"],"category1":"Инженерия","category2":"Камеры  хранения","category3":"Покупательские камеры  хранения","openCommunications":0,"totalCommunications":0,"actions":[]},{"id":149799,"applicant":{"fullName":"Алексей Карчевский","userName":"master","email":"a.karchevski@pflb.ru","location":"142784, г.Москва, Киевское шоссе, 22-й км,\nБП ComCity, домовл.6, стр.1","phone":"8 (000) 123-45-67","mobilePhone":"8 (000) 123-45-67","id":106},"header":"Потеряли все ключи","text":"Ogdanets text 2","createDate":1575042771611,"lastEditDate":1575042771615,"ticketState":"Новый","ticketStateId":-1,"serviceId":3000,"syncMask":"PORTAL_ONLY","location":"Изумрудная 14","address":"Изумрудная 14","categories":["Технологическое оборудование","Банковское оборудование","Сейфы"],"category1":"Технологическое оборудование","category2":"Банковское оборудование","category3":"Сейфы","openCommunications":0,"totalCommunications":0,"actions":[]},{"id":149798,"applicant":{"fullName":"Алексей Карчевский","userName":"master","email":"a.karchevski@pflb.ru","location":"142784, г.Москва, Киевское шоссе, 22-й км,\nБП ComCity, домовл.6, стр.1","phone":"8 (000) 123-45-67","mobilePhone":"8 (000) 123-45-67","id":106},"header":"Уничтожение комаров","text":"Ogdanets text 3","createDate":1575042763064,"lastEditDate":1575042763068,"ticketState":"Новый","ticketStateId":-1,"serviceId":2810,"syncMask":"PORTAL_ONLY","location":"Барклая 24","address":"Барклая 24","categories":["Экология","Дератизация, Дезинсекция, Дезинфекция","Уничтожение грызунов и насекомых, Дезинфекция"],"category1":"Экология","category2":"Дератизация, Дезинсекция, Дезинфекция","category3":"Уничтожение грызунов и насекомых, Дезинфекция","openCommunications":0,"totalCommunications":0,"actions":[]}],"last":false,"totalElements":646,"totalPages":65,"size":10,"number":0,"sort":[{"direction":"DESC","property":"id","ignoreCase":false,"nullHandling":"NATIVE","ascending":false,"descending":true}],"numberOfElements":10,"first":true}