{"content":[{"id":149800,"applicant":{"fullName":"Алексей Карчевский","userName":"master","email":"a.karchevski@pflb.ru","location":"142784, г.Москва, Киевское шоссе, 22-й км,\nБП ComCity, домовл.6, стр.1","phone":"8 (000) 123-45-67","mobilePhone":"8 (000) 123-45-67","id":106},"header":"Сломан замок, отсутствует ключ","text":"Ogdanets text 5","createDate":1575042779936,"lastEditDate":1575042779940,"ticketState":"Новый","ticketStateId":-1,"serviceId":3197,"syncMask":"PORTAL_ONLY","location":"Изумрудная 14","address":"Изумрудная 14","categories":["Инженерия","Камеры  хранения","Покупательские камеры  хранения"],"category1":"Инженерия","category2":"Камеры  хранения","category3":"Покупательские камеры  хранения","openCommunications":0,"totalCommunications":0,"actions":[]},{"id":149799,"applicant":{"fullName":"Алексей Карчевский","userName":"master","email":"a.karchevski@pflb.ru","location":"142784, г.Москва, Киевское шоссе, 22-й км,\nБП ComCity, домовл.6, стр.1","phone":"8 (000) 123-45-67","mobilePhone":"8 (000) 123-45-67","id":106},"header":"Потеряли все ключи","text":"Ogdanets text 2","createDate":1575042771611,"lastEditDate":1575042771615,"ticketState":"Новый","ticketStateId":-1,"serviceId":3000,"syncMask":"PORTAL_ONLY","location":"Изумрудная 14","address":"Изумрудная 14","categories":["Технологическое оборудование","Банковское оборудование","Сейфы"],"category1":"Технологическое оборудование","category2":"Банковское оборудование","category3":"Сейфы","openCommunications":0,"totalCommunications":0,"actions":[]},{"id":149798,"applicant":{"fullName":"Алексей Карчевский","userName":"master","email":"a.karchevski@pflb.ru","location":"142784, г.Москва, Киевское шоссе, 22-й км,\nБП ComCity, домовл.6, стр.1","phone":"8 (000) 123-45-67","mobilePhone":"8 (000) 123-45-67","id":106},"header":"Уничтожение комаров","text":"Ogdanets text 3","createDate":1575042763064,"lastEditDate":1575042763068,"ticketState":"Новый","ticketStateId":-1,"serviceId":2810,"syncMask":"PORTAL_ONLY","location":"Барклая 24","address":"Барклая 24","categories":["Экология","Дератизация, Дезинсекция, Дезинфекция","Уничтожение грызунов и насекомых, Дезинфекция"],"category1":"Экология","category2":"Дератизация, Дезинсекция, Дезинфекция","category3":"Уничтожение грызунов и насекомых, Дезинфекция","openCommunications":0,"totalCommunications":0,"actions":[]},{"id":149797,"applicant":{"fullName":"Алексей Карчевский","userName":"master","email":"a.karchevski@pflb.ru","location":"142784, г.Москва, Киевское шоссе, 22-й км,\nБП ComCity, домовл.6, стр.1","phone":"8 (000) 123-45-67","mobilePhone":"8 (000) 123-45-67","id":106},"header":"Течь труб (прорыв или свищ)","text":"Ogdanets text 3","createDate":1575042758451,"lastEditDate":1575042758456,"ticketState":"Новый","ticketStateId":-1,"serviceId":2860,"syncMask":"PORTAL_ONLY","location":"default location","address":"default location","categories":["Инженерия","Отопление","Прорыв, протечка в системе отопления"],"category1":"Инженерия","category2":"Отопление","category3":"Прорыв, протечка в системе отопления","openCommunications":0,"totalCommunications":0,"actions":[]},{"id":149796,"applicant":{"fullName":"Алексей Карчевский","userName":"master","email":"a.karchevski@pflb.ru","location":"142784, г.Москва, Киевское шоссе, 22-й км,\nБП ComCity, домовл.6, стр.1","phone":"8 (000) 123-45-67","mobilePhone":"8 (000) 123-45-67","id":106},"header":"Не работает счётчик купюр","text":"Ogdanets text 3","createDate":1575042750446,"lastEditDate":1575042750450,"ticketState":"Новый","ticketStateId":-1,"serviceId":2902,"syncMask":"PORTAL_ONLY","location":"Барклая 24","address":"Барклая 24","categories":["Технологическое оборудование","Банковское оборудование","Счётчик купюр"],"category1":"Технологическое оборудование","category2":"Банковское оборудование","category3":"Счётчик купюр","openCommunications":0,"totalCommunications":0,"actions":[]},{"id":149795,"applicant":{"fullName":"Алексей Карчевский","userName":"master","email":"a.karchevski@pflb.ru","location":"142784, г.Москва, Киевское шоссе, 22-й км,\nБП ComCity, домовл.6, стр.1","phone":"8 (000) 123-45-67","mobilePhone":"8 (000) 123-45-67","id":106},"director":{"fullName":"Васильев Павел1","userName":"director_1","email":"director@mail.com","location":"location","address":"152 Скотопрогонная ул. 13","phone":"+79778334486","mobilePhone":"8 (000) 123-45-67","workPhone":"+79778334486","organization":"organization","id":101122},"header":"Холодильник издает посторонние звуки","text":"Ogdanets text 5","createDate":1575042742096,"lastEditDate":1575042742099,"ticketState":"Новый","ticketStateId":-1,"serviceId":2970,"syncMask":"PORTAL_ONLY","location":"152 Скотопрогонная ул. 13","address":"152 Скотопрогонная ул. 13","categories":["Технологическое оборудование","Холодильное оборудование","Икорный/Бытовой холодильник"],"category1":"Технологическое оборудование","category2":"Холодильное оборудование","category3":"Икорный/Бытовой холодильник","openCommunications":0,"totalCommunications":0,"actions":[]},{"id":149794,"applicant":{"fullName":"Алексей Карчевский","userName":"master","email":"a.karchevski@pflb.ru","location":"142784, г.Москва, Киевское шоссе, 22-й км,\nБП ComCity, домовл.6, стр.1","phone":"8 (000) 123-45-67","mobilePhone":"8 (000) 123-45-67","id":106},"header":"Двери не открываются/закрываются","text":"Ogdanets text 4","createDate":1575042734440,"lastEditDate":1575042734444,"ticketState":"Новый","ticketStateId":-1,"serviceId":2944,"syncMask":"PORTAL_ONLY","location":"default location","address":"default location","categories":["Технологическое оборудование","Автоматические  ворота и двери","Автоматические двери на входе"],"category1":"Технологическое оборудование","category2":"Автоматические  ворота и двери","category3":"Автоматические двери на входе","openCommunications":0,"totalCommunications":0,"actions":[]},{"id":149793,"applicant":{"fullName":"Алексей Карчевский","userName":"master","email":"a.karchevski@pflb.ru","location":"142784, г.Москва, Киевское шоссе, 22-й км,\nБП ComCity, домовл.6, стр.1","phone":"8 (000) 123-45-67","mobilePhone":"8 (000) 123-45-67","id":106},"header":"Не работает морозильный ЛАРЬ Бонета(указать какую температуру показывает)","text":"Ogdanets text 5","createDate":1575042726854,"lastEditDate":1575042726858,"ticketState":"Новый","ticketStateId":-1,"serviceId":2986,"syncMask":"PORTAL_ONLY","location":"default location","address":"default location","categories":["Технологическое оборудование","Холодильное оборудование","Ларь Бонета"],"category1":"Технологическое оборудование","category2":"Холодильное оборудование","category3":"Ларь Бонета","openCommunications":0,"totalCommunications":0,"actions":[]},{"id":149792,"applicant":{"fullName":"Алексей Карчевский","userName":"master","email":"a.karchevski@pflb.ru","location":"142784, г.Москва, Киевское шоссе, 22-й км,\nБП ComCity, домовл.6, стр.1","phone":"8 (000) 123-45-67","mobilePhone":"8 (000) 123-45-67","id":106},"header":"Лифт не поднимает / не опускает","text":"Ogdanets text 4","createDate":1575042719128,"lastEditDate":1575042719132,"ticketState":"Новый","ticketStateId":-1,"serviceId":2913,"syncMask":"PORTAL_ONLY","location":"Барклая 24","address":"Барклая 24","categories":["Технологическое оборудование","Подъемные и передвижные механизмы","Эскалатор, лифт, подъемник"],"category1":"Технологическое оборудование","category2":"Подъемные и передвижные механизмы","category3":"Эскалатор, лифт, подъемник","openCommunications":0,"totalCommunications":0,"actions":[]},{"id":149791,"applicant":{"fullName":"Алексей Карчевский","userName":"master","email":"a.karchevski@pflb.ru","location":"142784, г.Москва, Киевское шоссе, 22-й км,\nБП ComCity, домовл.6, стр.1","phone":"8 (000) 123-45-67","mobilePhone":"8 (000) 123-45-67","id":106},"director":{"fullName":"Васильев Павел1","userName":"director_1","email":"director@mail.com","location":"location","address":"152 Скотопрогонная ул. 13","phone":"+79778334486","mobilePhone":"8 (000) 123-45-67","workPhone":"+79778334486","organization":"organization","id":101122},"header":"Уничтожение клопов","text":"Ogdanets text 3","createDate":1575042711412,"lastEditDate":1575042711416,"ticketState":"Новый","ticketStateId":-1,"serviceId":2808,"syncMask":"PORTAL_ONLY","location":"152 Скотопрогонная ул. 13","address":"152 Скотопрогонная ул. 13","categories":["Экология","Дератизация, Дезинсекция, Дезинфекция","Уничтожение грызунов и насекомых, Дезинфекция"],"category1":"Экология","category2":"Дератизация, Дезинсекция, Дезинфекция","category3":"Уничтожение грызунов и насекомых, Дезинфекция","openCommunications":0,"totalCommunications":0,"actions":[]}],"last":false,"totalElements":639,"totalPages":64,"size":10,"number":0,"sort":[{"direction":"DESC","property":"id","ignoreCase":false,"nullHandling":"NATIVE","ascending":false,"descending":true}],"numberOfElements":10,"first":true}