{"content":[{"id":149671,"applicant":{"fullName":"Алексей Карчевский","userName":"master","email":"a.karchevski@pflb.ru","location":"142784, г.Москва, Киевское шоссе, 22-й км,\nБП ComCity, домовл.6, стр.1","phone":"8 (000) 123-45-67","mobilePhone":"8 (000) 123-45-67","id":106},"header":"DESCRIPTION","text":"Some text 1","createDate":1575013037141,"lastEditDate":1575013037160,"ticketState":"Новый","ticketStateId":-1,"serviceId":2501,"syncMask":"PORTAL_ONLY","files":[{"id":5009,"name":"C:\\Users\\student\\Desktop\\Ogdanets\\XDesk\\UC01_task_create\\File1.txt"}],"location":"Изумрудная 14","address":"Изумрудная 14","categories":["NAME1","NAME2","NAME3"],"category1":"NAME1","category2":"NAME2","category3":"NAME3","hasAttachments":true,"openCommunications":0,"totalCommunications":0,"actions":[]},{"id":149670,"applicant":{"fullName":"Алексей Карчевский","userName":"master","email":"a.karchevski@pflb.ru","location":"142784, г.Москва, Киевское шоссе, 22-й км,\nБП ComCity, домовл.6, стр.1","phone":"8 (000) 123-45-67","mobilePhone":"8 (000) 123-45-67","id":106},"header":"Нет вывоза ТБО","text":" cxcxxvxvx","createDate":1574965067195,"lastEditDate":1574965067199,"ticketState":"Новый","ticketStateId":-1,"serviceId":2781,"inventoryNumber":"000006","inventoryId":6,"syncMask":"PORTAL_ONLY","location":"Барклая 24","address":"Барклая 24","categories":["Экология","Вывоз мусора","Нарушение графика вывоза мусора"],"category1":"Экология","category2":"Вывоз мусора","category3":"Нарушение графика вывоза мусора","openCommunications":0,"totalCommunications":0,"actions":[]},{"id":149669,"applicant":{"fullName":"Алексей Карчевский","userName":"master","email":"a.karchevski@pflb.ru","location":"142784, г.Москва, Киевское шоссе, 22-й км,\nБП ComCity, домовл.6, стр.1","phone":"8 (000) 123-45-67","mobilePhone":"8 (000) 123-45-67","id":106},"header":"Батареи прогреваются неравномерно (половина батареи холодная, половина тёплая)","text":"Some text 5","createDate":1574955917204,"lastEditDate":1574955917209,"ticketState":"Выполняется","ticketStateId":1,"serviceId":2855,"syncMask":"PORTAL_ONLY","files":[{"id":5005,"name":"C:\\Users\\student\\Desktop\\Ogdanets\\XDesk\\UC01_task_create\\File1.txt"}],"location":"256 Бинарная ул. 16","address":"256 Бинарная ул. 16","taskId":149669,"taskState":"Решена","taskStateId":2,"categories":["Инженерия","Отопление","Нарушение температурного режима (холод в магазине)"],"category1":"Инженерия","category2":"Отопление","category3":"Нарушение температурного режима (холод в магазине)","canBeCanceled":false,"hasAttachments":true,"openCommunications":0,"totalCommunications":0,"actions":["solveTicket","cancelTicket","inventoryNumberChange","slaDateChange","comment"]},{"id":149668,"applicant":{"fullName":"Алексей Карчевский","userName":"master","email":"a.karchevski@pflb.ru","location":"142784, г.Москва, Киевское шоссе, 22-й км,\nБП ComCity, домовл.6, стр.1","phone":"8 (000) 123-45-67","mobilePhone":"8 (000) 123-45-67","id":106},"director":{"fullName":"Васильев Павел1","userName":"director_1","email":"director@mail.com","location":"location","address":"152 Скотопрогонная ул. 13","phone":"+79778334486","mobilePhone":"8 (000) 123-45-67","workPhone":"+79778334486","organization":"organization","id":101122},"header":"Отсутствие внешних повреждений. Следов копати. Целостность корпуса","text":"Some text 5","createDate":1574955901565,"lastEditDate":1574955901712,"ticketState":"Выполняется","ticketStateId":1,"serviceId":2833,"syncMask":"PORTAL_ONLY","files":[{"id":5004,"name":"C:\\Users\\student\\Desktop\\Ogdanets\\XDesk\\UC01_task_create\\File1.txt"}],"location":"152 Скотопрогонная ул. 13","address":"152 Скотопрогонная ул. 13","taskId":149668,"taskState":"Решена","taskStateId":2,"categories":["Инженерия","Электрооборудование","Электророзетки, выключатели"],"category1":"Инженерия","category2":"Электрооборудование","category3":"Электророзетки, выключатели","canBeCanceled":false,"hasAttachments":true,"openCommunications":0,"totalCommunications":0,"actions":["solveTicket","cancelTicket","inventoryNumberChange","slaDateChange","comment"]},{"id":149667,"applicant":{"fullName":"Алексей Карчевский","userName":"master","email":"a.karchevski@pflb.ru","location":"142784, г.Москва, Киевское шоссе, 22-й км,\nБП ComCity, домовл.6, стр.1","phone":"8 (000) 123-45-67","mobilePhone":"8 (000) 123-45-67","id":106},"header":"Уничтожение мух","text":"testdescriptiontest","createDate":1574955532623,"lastEditDate":1574955532627,"ticketState":"Выполняется","ticketStateId":1,"serviceId":2806,"syncMask":"PORTAL_ONLY","location":"default location","address":"default location","taskId":149667,"taskState":"Решена","taskStateId":2,"categories":["Экология","Дератизация, Дезинсекция, Дезинфекция","Уничтожение грызунов и насекомых, Дезинфекция"],"category1":"Экология","category2":"Дератизация, Дезинсекция, Дезинфекция","category3":"Уничтожение грызунов и насекомых, Дезинфекция","canBeCanceled":false,"openCommunications":0,"totalCommunications":0,"actions":["solveTicket","cancelTicket","inventoryNumberChange","slaDateChange","comment"]},{"id":149666,"applicant":{"fullName":"Алексей Карчевский","userName":"master","email":"a.karchevski@pflb.ru","location":"142784, г.Москва, Киевское шоссе, 22-й км,\nБП ComCity, домовл.6, стр.1","phone":"8 (000) 123-45-67","mobilePhone":"8 (000) 123-45-67","id":106},"header":"Не крутится транспортёрная лента","text":"Agalarov.A.2102715925","createDate":1574953906096,"lastEditDate":1574953906100,"ticketState":"Выполняется","ticketStateId":1,"serviceId":2869,"viewed":true,"syncMask":"PORTAL_ONLY","location":"default location","address":"default location","taskId":149666,"taskState":"Решена","taskStateId":2,"categories":["Инженерия","Части здания","Входная группа (ступени, пандус, поручни)"],"category1":"Инженерия","category2":"Части здания","category3":"Входная группа (ступени, пандус, поручни)","canBeCanceled":false,"openCommunications":0,"totalCommunications":0,"actions":["solveTicket","cancelTicket","inventoryNumberChange","slaDateChange","comment"]},{"id":149665,"applicant":{"fullName":"Алексей Карчевский","userName":"master","email":"a.karchevski@pflb.ru","location":"142784, г.Москва, Киевское шоссе, 22-й км,\nБП ComCity, домовл.6, стр.1","phone":"8 (000) 123-45-67","mobilePhone":"8 (000) 123-45-67","id":106},"header":"Не крутится транспортёрная лента","text":"Agalarov.A.1711641938","createDate":1574953899642,"lastEditDate":1574953899646,"ticketState":"Выполняется","ticketStateId":1,"serviceId":2787,"inventoryNumber":"000010","inventoryId":10,"syncMask":"PORTAL_ONLY","location":"Изумрудная 14","address":"Изумрудная 14","taskId":149665,"taskState":"Решена","taskStateId":2,"categories":["Экология","Уборка помещений и прилегающей территории","Уборка прилегающей территории"],"category1":"Экология","category2":"Уборка помещений и прилегающей территории","category3":"Уборка прилегающей территории","canBeCanceled":false,"openCommunications":0,"totalCommunications":0,"actions":["solveTicket","cancelTicket","inventoryNumberChange","slaDateChange","comment"]},{"id":149664,"applicant":{"fullName":"Алексей Карчевский","userName":"master","email":"a.karchevski@pflb.ru","location":"142784, г.Москва, Киевское шоссе, 22-й км,\nБП ComCity, домовл.6, стр.1","phone":"8 (000) 123-45-67","mobilePhone":"8 (000) 123-45-67","id":106},"header":"Не крутится транспортёрная лента","text":"Agalarov.A.1964564110","createDate":1574953892944,"lastEditDate":1574953892948,"ticketState":"Выполняется","ticketStateId":1,"serviceId":2782,"syncMask":"PORTAL_ONLY","location":"256 Бинарная ул. 16","address":"256 Бинарная ул. 16","taskId":149664,"taskState":"Решена","taskStateId":2,"categories":["Экология","Уборка помещений и прилегающей территории","Уборка прилегающей территории"],"category1":"Экология","category2":"Уборка помещений и прилегающей территории","category3":"Уборка прилегающей территории","canBeCanceled":false,"openCommunications":0,"totalCommunications":0,"actions":["solveTicket","cancelTicket","inventoryNumberChange","slaDateChange","comment"]},{"id":149663,"applicant":{"fullName":"Алексей Карчевский","userName":"master","email":"a.karchevski@pflb.ru","location":"142784, г.Москва, Киевское шоссе, 22-й км,\nБП ComCity, домовл.6, стр.1","phone":"8 (000) 123-45-67","mobilePhone":"8 (000) 123-45-67","id":106},"header":"Не крутится транспортёрная лента","text":"Agalarov.A.1715280548","createDate":1574953891074,"lastEditDate":1574953891096,"ticketState":"Выполняется","ticketStateId":1,"serviceId":3001,"syncMask":"PORTAL_ONLY","location":"default location","address":"default location","taskId":149663,"taskState":"Решена","taskStateId":2,"categories":["Технологическое оборудование","Банковское оборудование","Сейфы"],"category1":"Технологическое оборудование","category2":"Банковское оборудование","category3":"Сейфы","canBeCanceled":false,"openCommunications":0,"totalCommunications":0,"actions":["solveTicket","cancelTicket","inventoryNumberChange","slaDateChange","comment"]},{"id":149662,"applicant":{"fullName":"Алексей Карчевский","userName":"master","email":"a.karchevski@pflb.ru","location":"142784, г.Москва, Киевское шоссе, 22-й км,\nБП ComCity, домовл.6, стр.1","phone":"8 (000) 123-45-67","mobilePhone":"8 (000) 123-45-67","id":106},"header":"Не крутится транспортёрная лента","text":"Agalarov.A.1116726989","createDate":1574953889105,"lastEditDate":1574953889110,"ticketState":"Выполняется","ticketStateId":1,"serviceId":2828,"syncMask":"PORTAL_ONLY","location":"default location","address":"default location","taskId":149662,"taskState":"Решена","taskStateId":2,"categories":["Инженерия","Электрооборудование","Электрощитовая"],"category1":"Инженерия","category2":"Электрооборудование","category3":"Электрощитовая","canBeCanceled":false,"openCommunications":0,"totalCommunications":0,"actions":["solveTicket","cancelTicket","inventoryNumberChange","slaDateChange","comment"]}],"last":false,"totalElements":352,"totalPages":36,"size":10,"number":0,"sort":[{"direction":"DESC","property":"id","ignoreCase":false,"nullHandling":"NATIVE","ascending":false,"descending":true}],"numberOfElements":10,"first":true}