{"content":[{"id":149853,"applicant":{"fullName":"Алексей Карчевский","userName":"master","email":"a.karchevski@pflb.ru","location":"142784, г.Москва, Киевское шоссе, 22-й км,\nБП ComCity, домовл.6, стр.1","phone":"8 (000) 123-45-67","mobilePhone":"8 (000) 123-45-67","id":106},"header":"It's me","text":"IOS","createDate":1575280459941,"lastEditDate":1575280459945,"ticketState":"Новый","ticketStateId":-1,"serviceId":2948,"inventoryNumber":"000006","inventoryId":6,"syncMask":"PORTAL_ONLY","location":"Барклая 24","address":"Барклая 24","categories":["Технологическое оборудование","Автоматические  ворота и двери","Автоматические двери на входе"],"category1":"Технологическое оборудование","category2":"Автоматические  ворота и двери","category3":"Автоматические двери на входе","openCommunications":0,"totalCommunications":0,"actions":[]},{"id":149852,"applicant":{"fullName":"Алексей Карчевский","userName":"master","email":"a.karchevski@pflb.ru","location":"142784, г.Москва, Киевское шоссе, 22-й км,\nБП ComCity, домовл.6, стр.1","phone":"8 (000) 123-45-67","mobilePhone":"8 (000) 123-45-67","id":106},"header":"Отлов птиц","text":"Some text 666 777","createDate":1575279338274,"lastEditDate":1575279338278,"ticketState":"Новый","ticketStateId":-1,"serviceId":2816,"inventoryNumber":"777","inventoryId":11,"viewed":true,"syncMask":"PORTAL_ONLY","location":"Изумрудная 14","address":"Изумрудная 14","categories":["Экология","Отлов птиц","Отлов птиц"],"category1":"Экология","category2":"Отлов птиц","category3":"Отлов птиц","openCommunications":0,"totalCommunications":0,"actions":[]},{"id":149851,"applicant":{"fullName":"Алексей Карчевский","userName":"master","email":"a.karchevski@pflb.ru","location":"142784, г.Москва, Киевское шоссе, 22-й км,\nБП ComCity, домовл.6, стр.1","phone":"8 (000) 123-45-67","mobilePhone":"8 (000) 123-45-67","id":106},"header":"Отлов птиц","text":"Some text 666 777","createDate":1575278970292,"lastEditDate":1575278970385,"ticketState":"Новый","ticketStateId":-1,"serviceId":2816,"inventoryNumber":"777","inventoryId":11,"viewed":true,"syncMask":"PORTAL_ONLY","files":[{"id":5037,"name":"res.html"}],"location":"Изумрудная 14","address":"Изумрудная 14","categories":["Экология","Отлов птиц","Отлов птиц"],"category1":"Экология","category2":"Отлов птиц","category3":"Отлов птиц","hasAttachments":true,"openCommunications":0,"totalCommunications":0,"actions":[]},{"id":149850,"applicant":{"fullName":"Алексей Карчевский","userName":"master","email":"a.karchevski@pflb.ru","location":"142784, г.Москва, Киевское шоссе, 22-й км,\nБП ComCity, домовл.6, стр.1","phone":"8 (000) 123-45-67","mobilePhone":"8 (000) 123-45-67","id":106},"director":{"fullName":"Васильев Павел1","userName":"director_1","email":"director@mail.com","location":"location","address":"152 Скотопрогонная ул. 13","phone":"+79778334486","mobilePhone":"8 (000) 123-45-67","workPhone":"+79778334486","organization":"organization","id":101122},"header":"Не работает счетчик монет","text":"Ogdanets text 5","createDate":1575278597560,"lastEditDate":1575278597564,"ticketState":"Новый","ticketStateId":-1,"serviceId":2903,"syncMask":"PORTAL_ONLY","location":"152 Скотопрогонная ул. 13","address":"152 Скотопрогонная ул. 13","categories":["Технологическое оборудование","Банковское оборудование","Счётчик монет"],"category1":"Технологическое оборудование","category2":"Банковское оборудование","category3":"Счётчик монет","openCommunications":0,"totalCommunications":0,"actions":[]},{"id":149849,"applicant":{"fullName":"Алексей Карчевский","userName":"master","email":"a.karchevski@pflb.ru","location":"142784, г.Москва, Киевское шоссе, 22-й км,\nБП ComCity, домовл.6, стр.1","phone":"8 (000) 123-45-67","mobilePhone":"8 (000) 123-45-67","id":106},"header":"Замена металического фриза","text":"Agalarov.A.1086007932","createDate":1575277909717,"lastEditDate":1575277909721,"ticketState":"Новый","ticketStateId":-1,"serviceId":2872,"inventoryNumber":"000010","inventoryId":10,"syncMask":"PORTAL_ONLY","location":"Изумрудная 14","address":"Изумрудная 14","categories":["Инженерия","Части здания","Ремонт фасада (обшивка стен, плитка, штукатурка)"],"category1":"Инженерия","category2":"Части здания","category3":"Ремонт фасада (обшивка стен, плитка, штукатурка)","openCommunications":0,"totalCommunications":0,"actions":[]},{"id":149848,"applicant":{"fullName":"Алексей Карчевский","userName":"master","email":"a.karchevski@pflb.ru","location":"142784, г.Москва, Киевское шоссе, 22-й км,\nБП ComCity, домовл.6, стр.1","phone":"8 (000) 123-45-67","mobilePhone":"8 (000) 123-45-67","id":106},"header":"Замена металического фриза","text":"Agalarov.A.1633484996","createDate":1575277684327,"lastEditDate":1575277684331,"ticketState":"Выполняется","ticketStateId":1,"serviceId":2871,"syncMask":"PORTAL_ONLY","location":"default location","address":"default location","categories":["Инженерия","Части здания","Ремонт фасада (обшивка стен, плитка, штукатурка)"],"category1":"Инженерия","category2":"Части здания","category3":"Ремонт фасада (обшивка стен, плитка, штукатурка)","canBeCanceled":false,"openCommunications":0,"totalCommunications":0,"actions":[]},{"id":149844,"applicant":{"fullName":"Алексей Карчевский","userName":"master","email":"a.karchevski@pflb.ru","location":"142784, г.Москва, Киевское шоссе, 22-й км,\nБП ComCity, домовл.6, стр.1","phone":"8 (000) 123-45-67","mobilePhone":"8 (000) 123-45-67","id":106},"contractor":{"id":9,"name":"2-Ремонт","organization":"Холодильное оборудование","company":"YYY","active":true},"header":"It's me","text":"IOS","createDate":1575277411318,"lastEditDate":1575277411329,"ticketState":"Выполняется","ticketStateId":1,"serviceId":2837,"syncMask":"PORTAL_ONLY","location":"default location","address":"default location","taskId":149844,"taskState":"Выполняется","taskStateId":1,"categories":["Инженерия","Электрооборудование","Внутреннее освещение торгового зала и подсобных помещений"],"category1":"Инженерия","category2":"Электрооборудование","category3":"Внутреннее освещение торгового зала и подсобных помещений","canBeCanceled":false,"openCommunications":0,"totalCommunications":0,"actions":["assignContractor","solveTicket","cancelTicket","cancelTask","inventoryNumberChange","slaDateChange","specialistDateChange","comment"]},{"id":149843,"applicant":{"fullName":"Алексей Карчевский","userName":"master","email":"a.karchevski@pflb.ru","location":"142784, г.Москва, Киевское шоссе, 22-й км,\nБП ComCity, домовл.6, стр.1","phone":"8 (000) 123-45-67","mobilePhone":"8 (000) 123-45-67","id":106},"contractor":{"id":9,"name":"2-Ремонт","organization":"Холодильное оборудование","company":"YYY","active":true},"header":"It's me","text":"IOS","createDate":1575277409555,"lastEditDate":1575277409560,"ticketState":"Выполняется","ticketStateId":1,"serviceId":2963,"viewed":true,"syncMask":"PORTAL_ONLY","location":"default location","address":"default location","taskId":149843,"taskState":"Выполняется","taskStateId":1,"categories":["Технологическое оборудование","Холодильное оборудование","Холодильная камера"],"category1":"Технологическое оборудование","category2":"Холодильное оборудование","category3":"Холодильная камера","canBeCanceled":false,"openCommunications":0,"totalCommunications":0,"actions":["assignContractor","solveTicket","cancelTicket","cancelTask","inventoryNumberChange","slaDateChange","specialistDateChange","comment"]},{"id":149842,"applicant":{"fullName":"Алексей Карчевский","userName":"master","email":"a.karchevski@pflb.ru","location":"142784, г.Москва, Киевское шоссе, 22-й км,\nБП ComCity, домовл.6, стр.1","phone":"8 (000) 123-45-67","mobilePhone":"8 (000) 123-45-67","id":106},"header":"Промывка фасадов (в том числе - мойка вывесок с применением моющих средств)","text":"Agalarov.A.1683534111","createDate":1575276683418,"lastEditDate":1575276683433,"ticketState":"Выполняется","ticketStateId":1,"serviceId":2786,"syncMask":"PORTAL_ONLY","location":"default location","address":"default location","categories":["Экология","Уборка помещений и прилегающей территории","Уборка прилегающей территории"],"category1":"Экология","category2":"Уборка помещений и прилегающей территории","category3":"Уборка прилегающей территории","canBeCanceled":false,"openCommunications":0,"totalCommunications":0,"actions":[]},{"id":149841,"applicant":{"fullName":"Алексей Карчевский","userName":"master","email":"a.karchevski@pflb.ru","location":"142784, г.Москва, Киевское шоссе, 22-й км,\nБП ComCity, домовл.6, стр.1","phone":"8 (000) 123-45-67","mobilePhone":"8 (000) 123-45-67","id":106},"header":"Из Ларь Бонеты течет вода","text":"Agalarov.A.1385028116","createDate":1575276442347,"lastEditDate":1575276442351,"ticketState":"Выполняется","ticketStateId":1,"serviceId":3006,"syncMask":"PORTAL_ONLY","location":"default location","address":"default location","categories":["Технологическое оборудование","Холодильное оборудование","Ларь Бонета"],"category1":"Технологическое оборудование","category2":"Холодильное оборудование","category3":"Ларь Бонета","canBeCanceled":false,"openCommunications":0,"totalCommunications":0,"smhoClass":"D","actions":[]}],"last":false,"totalElements":407,"totalPages":41,"size":10,"number":0,"sort":[{"direction":"DESC","property":"id","ignoreCase":false,"nullHandling":"NATIVE","ascending":false,"descending":true}],"numberOfElements":10,"first":true}