{"content":[{"id":149666,"applicant":{"fullName":"Алексей Карчевский","userName":"master","email":"a.karchevski@pflb.ru","location":"142784, г.Москва, Киевское шоссе, 22-й км,\nБП ComCity, домовл.6, стр.1","phone":"8 (000) 123-45-67","mobilePhone":"8 (000) 123-45-67","id":106},"header":"Не крутится транспортёрная лента","text":"Agalarov.A.2102715925","createDate":1574953906096,"lastEditDate":1574953906100,"ticketState":"Новый","ticketStateId":-1,"serviceId":2869,"syncMask":"PORTAL_ONLY","location":"default location","address":"default location","categories":["Инженерия","Части здания","Входная группа (ступени, пандус, поручни)"],"category1":"Инженерия","category2":"Части здания","category3":"Входная группа (ступени, пандус, поручни)","openCommunications":0,"totalCommunications":0,"actions":[]},{"id":149665,"applicant":{"fullName":"Алексей Карчевский","userName":"master","email":"a.karchevski@pflb.ru","location":"142784, г.Москва, Киевское шоссе, 22-й км,\nБП ComCity, домовл.6, стр.1","phone":"8 (000) 123-45-67","mobilePhone":"8 (000) 123-45-67","id":106},"header":"Не крутится транспортёрная лента","text":"Agalarov.A.1711641938","createDate":1574953899642,"lastEditDate":1574953899646,"ticketState":"Новый","ticketStateId":-1,"serviceId":2787,"inventoryNumber":"000010","inventoryId":10,"syncMask":"PORTAL_ONLY","location":"Изумрудная 14","address":"Изумрудная 14","categories":["Экология","Уборка помещений и прилегающей территории","Уборка прилегающей территории"],"category1":"Экология","category2":"Уборка помещений и прилегающей территории","category3":"Уборка прилегающей территории","openCommunications":0,"totalCommunications":0,"actions":[]},{"id":149664,"applicant":{"fullName":"Алексей Карчевский","userName":"master","email":"a.karchevski@pflb.ru","location":"142784, г.Москва, Киевское шоссе, 22-й км,\nБП ComCity, домовл.6, стр.1","phone":"8 (000) 123-45-67","mobilePhone":"8 (000) 123-45-67","id":106},"header":"Не крутится транспортёрная лента","text":"Agalarov.A.1964564110","createDate":1574953892944,"lastEditDate":1574953892948,"ticketState":"Новый","ticketStateId":-1,"serviceId":2782,"syncMask":"PORTAL_ONLY","location":"256 Бинарная ул. 16","address":"256 Бинарная ул. 16","categories":["Экология","Уборка помещений и прилегающей территории","Уборка прилегающей территории"],"category1":"Экология","category2":"Уборка помещений и прилегающей территории","category3":"Уборка прилегающей территории","openCommunications":0,"totalCommunications":0,"actions":[]},{"id":149663,"applicant":{"fullName":"Алексей Карчевский","userName":"master","email":"a.karchevski@pflb.ru","location":"142784, г.Москва, Киевское шоссе, 22-й км,\nБП ComCity, домовл.6, стр.1","phone":"8 (000) 123-45-67","mobilePhone":"8 (000) 123-45-67","id":106},"header":"Не крутится транспортёрная лента","text":"Agalarov.A.1715280548","createDate":1574953891074,"lastEditDate":1574953891096,"ticketState":"Новый","ticketStateId":-1,"serviceId":3001,"syncMask":"PORTAL_ONLY","location":"default location","address":"default location","categories":["Технологическое оборудование","Банковское оборудование","Сейфы"],"category1":"Технологическое оборудование","category2":"Банковское оборудование","category3":"Сейфы","openCommunications":0,"totalCommunications":0,"actions":[]},{"id":149662,"applicant":{"fullName":"Алексей Карчевский","userName":"master","email":"a.karchevski@pflb.ru","location":"142784, г.Москва, Киевское шоссе, 22-й км,\nБП ComCity, домовл.6, стр.1","phone":"8 (000) 123-45-67","mobilePhone":"8 (000) 123-45-67","id":106},"header":"Не крутится транспортёрная лента","text":"Agalarov.A.1116726989","createDate":1574953889105,"lastEditDate":1574953889110,"ticketState":"Новый","ticketStateId":-1,"serviceId":2828,"syncMask":"PORTAL_ONLY","location":"default location","address":"default location","categories":["Инженерия","Электрооборудование","Электрощитовая"],"category1":"Инженерия","category2":"Электрооборудование","category3":"Электрощитовая","openCommunications":0,"totalCommunications":0,"actions":[]},{"id":149661,"applicant":{"fullName":"Алексей Карчевский","userName":"master","email":"a.karchevski@pflb.ru","location":"142784, г.Москва, Киевское шоссе, 22-й км,\nБП ComCity, домовл.6, стр.1","phone":"8 (000) 123-45-67","mobilePhone":"8 (000) 123-45-67","id":106},"director":{"fullName":"Васильев Павел1","userName":"director_1","email":"director@mail.com","location":"location","address":"152 Скотопрогонная ул. 13","phone":"+79778334486","mobilePhone":"8 (000) 123-45-67","workPhone":"+79778334486","organization":"organization","id":101122},"header":"Не работает Икорный/Бытовой холодильник","text":"Some text 2","createDate":1574953552572,"lastEditDate":1574953552665,"ticketState":"Новый","ticketStateId":-1,"serviceId":2968,"viewed":true,"syncMask":"PORTAL_ONLY","files":[{"id":5002,"name":"C:\\Users\\student\\Desktop\\Ogdanets\\XDesk\\UC01_task_create\\File1.txt"}],"location":"152 Скотопрогонная ул. 13","address":"152 Скотопрогонная ул. 13","categories":["Технологическое оборудование","Холодильное оборудование","Икорный/Бытовой холодильник"],"category1":"Технологическое оборудование","category2":"Холодильное оборудование","category3":"Икорный/Бытовой холодильник","hasAttachments":true,"openCommunications":0,"totalCommunications":0,"actions":[]},{"id":149659,"applicant":{"fullName":"Алексей Карчевский","userName":"master","email":"a.karchevski@pflb.ru","location":"142784, г.Москва, Киевское шоссе, 22-й км,\nБП ComCity, домовл.6, стр.1","phone":"8 (000) 123-45-67","mobilePhone":"8 (000) 123-45-67","id":106},"contractor":{"id":4,"name":"2-Оборудование","organization":"Эксплуатация","company":"XXX","active":true},"header":"Пресс не пресует","text":"MX request","createDate":1574952398880,"lastEditDate":1574954326716,"ticketState":"Выполняется","ticketStateId":1,"serviceId":2905,"viewed":true,"syncMask":"PORTAL_ONLY","location":"default location","address":"default location","taskId":149659,"taskState":"Выполняется","taskStateId":1,"categories":["Технологическое оборудование","Инженерное оборудование","Пресс"],"category1":"Технологическое оборудование","category2":"Инженерное оборудование","category3":"Пресс","canBeCanceled":false,"openCommunications":0,"totalCommunications":0,"actions":["assignContractor","solveTicket","cancelTicket","cancelTask","inventoryNumberChange","slaDateChange","specialistDateChange","comment"]},{"id":149656,"applicant":{"fullName":"Алексей Карчевский","userName":"master","email":"a.karchevski@pflb.ru","location":"142784, г.Москва, Киевское шоссе, 22-й км,\nБП ComCity, домовл.6, стр.1","phone":"8 (000) 123-45-67","mobilePhone":"8 (000) 123-45-67","id":106},"header":"Отсутствие отопления, все батареи холодные","text":"testdescriptiontest","createDate":1574952239172,"lastEditDate":1574952239176,"ticketState":"Выполняется","ticketStateId":1,"serviceId":2853,"viewed":true,"syncMask":"PORTAL_ONLY","location":"default location","address":"default location","taskId":149656,"taskState":"Решена","taskStateId":2,"categories":["Инженерия","Отопление","Нарушение температурного режима (холод в магазине)"],"category1":"Инженерия","category2":"Отопление","category3":"Нарушение температурного режима (холод в магазине)","canBeCanceled":false,"openCommunications":0,"totalCommunications":0,"actions":["solveTicket","cancelTicket","inventoryNumberChange","slaDateChange","comment"]},{"id":149655,"applicant":{"fullName":"Алексей Карчевский","userName":"master","email":"a.karchevski@pflb.ru","location":"142784, г.Москва, Киевское шоссе, 22-й км,\nБП ComCity, домовл.6, стр.1","phone":"8 (000) 123-45-67","mobilePhone":"8 (000) 123-45-67","id":106},"header":"Не работает вертушка","text":"Some text 3","createDate":1574952034012,"lastEditDate":1574952034016,"ticketState":"Выполняется","ticketStateId":1,"serviceId":2888,"syncMask":"PORTAL_ONLY","files":[{"id":5000,"name":"C:\\Users\\student\\Desktop\\Ogdanets\\XDesk\\UC01_task_create\\File1.txt"}],"location":"Барклая 24","address":"Барклая 24","taskId":149655,"taskState":"Решена","taskStateId":2,"categories":["Технологическое оборудование","Кассовый стол и гидаж","Турникеты, гидаж"],"category1":"Технологическое оборудование","category2":"Кассовый стол и гидаж","category3":"Турникеты, гидаж","canBeCanceled":false,"hasAttachments":true,"openCommunications":0,"totalCommunications":0,"actions":["solveTicket","cancelTicket","inventoryNumberChange","slaDateChange","comment"]},{"id":149653,"applicant":{"fullName":"Алексей Карчевский","userName":"master","email":"a.karchevski@pflb.ru","location":"142784, г.Москва, Киевское шоссе, 22-й км,\nБП ComCity, домовл.6, стр.1","phone":"8 (000) 123-45-67","mobilePhone":"8 (000) 123-45-67","id":106},"header":"Замена фасадной плитки (м2)","text":"Some text 5","createDate":1574951240371,"lastEditDate":1574951240376,"ticketState":"Выполняется","ticketStateId":1,"serviceId":2871,"syncMask":"PORTAL_ONLY","files":[{"id":4998,"name":"C:\\Users\\student\\Desktop\\Ogdanets\\XDesk\\UC01_task_create\\File1.txt"}],"location":"default location","address":"default location","taskId":149653,"taskState":"Решена","taskStateId":2,"categories":["Инженерия","Части здания","Ремонт фасада (обшивка стен, плитка, штукатурка)"],"category1":"Инженерия","category2":"Части здания","category3":"Ремонт фасада (обшивка стен, плитка, штукатурка)","canBeCanceled":false,"hasAttachments":true,"openCommunications":0,"totalCommunications":0,"actions":["solveTicket","cancelTicket","inventoryNumberChange","slaDateChange","comment"]}],"last":false,"totalElements":432,"totalPages":44,"size":10,"number":0,"sort":[{"direction":"DESC","property":"id","ignoreCase":false,"nullHandling":"NATIVE","ascending":false,"descending":true}],"numberOfElements":10,"first":true}