{"content":[{"id":150676,"parentId":150676,"externalId":"TSK_1800000","header":"Отсутствие индикации на контрольных приборах","text":"MX request","priority":"Низкий","createDate":1511190000000,"lastEditDate":1511190000000,"state":"Выполняется","stateId":1,"syncMask":"PORTAL_ONLY","isSpecialistDate":false,"ticketState":"Выполняется","ticketStateId":1,"inventoryNumber":"000006","applicant":{"fullName":"Алексей Карчевский","userName":"master","email":"a.karchevski@pflb.ru","location":"142784, г.Москва, Киевское шоссе, 22-й км,\nБП ComCity, домовл.6, стр.1","phone":"8 (000) 123-45-67","mobilePhone":"8 (000) 123-45-67","id":106},"categories":["Инженерия","Газовое оборудование","Газовое оборудование"],"category1":"Инженерия","category2":"Газовое оборудование","category3":"Газовое оборудование","location":"Барклая 24","address":"Барклая 24","actions":["assignContractor","solveTicket","cancelTicket","cancelTask","inventoryNumberChange","slaDateChange","specialistDateChange","comment"]},{"id":150675,"parentId":150675,"externalId":"TSK_1800000","header":"Шкаф издаёт посторонние звуки","text":"MX request","priority":"Низкий","createDate":1511190000000,"lastEditDate":1511190000000,"state":"Выполняется","stateId":1,"syncMask":"PORTAL_ONLY","isSpecialistDate":false,"ticketState":"Выполняется","ticketStateId":1,"inventoryNumber":"000006","applicant":{"fullName":"Алексей Карчевский","userName":"master","email":"a.karchevski@pflb.ru","location":"142784, г.Москва, Киевское шоссе, 22-й км,\nБП ComCity, домовл.6, стр.1","phone":"8 (000) 123-45-67","mobilePhone":"8 (000) 123-45-67","id":106},"categories":["Технологическое оборудование","Холодильное оборудование","Холодильный Шкаф на Складе"],"category1":"Технологическое оборудование","category2":"Холодильное оборудование","category3":"Холодильный Шкаф на Складе","location":"Барклая 24","address":"Барклая 24","actions":["assignContractor","solveTicket","cancelTicket","cancelTask","inventoryNumberChange","slaDateChange","specialistDateChange","comment"]},{"id":150674,"parentId":150674,"externalId":"TSK_1800000","header":"Вентиляция издает посторонние звуки/запахи","text":"MX request","priority":"Низкий","createDate":1511190000000,"lastEditDate":1511190000000,"state":"Выполняется","stateId":1,"syncMask":"PORTAL_ONLY","isSpecialistDate":false,"ticketState":"Выполняется","ticketStateId":1,"inventoryNumber":"000010","applicant":{"fullName":"Алексей Карчевский","userName":"master","email":"a.karchevski@pflb.ru","location":"142784, г.Москва, Киевское шоссе, 22-й км,\nБП ComCity, домовл.6, стр.1","phone":"8 (000) 123-45-67","mobilePhone":"8 (000) 123-45-67","id":106},"categories":["Технологическое оборудование","Климатическое оборудование","Система вентиляции"],"category1":"Технологическое оборудование","category2":"Климатическое оборудование","category3":"Система вентиляции","location":"Изумрудная 14","address":"Изумрудная 14","actions":["assignContractor","solveTicket","cancelTicket","cancelTask","inventoryNumberChange","slaDateChange","specialistDateChange","comment"]},{"id":150673,"parentId":150673,"externalId":"TSK_1800000","header":"Шатается вертушка(калитка)","text":"MX request","priority":"Низкий","createDate":1511190000000,"lastEditDate":1511190000000,"state":"Выполняется","stateId":1,"syncMask":"PORTAL_ONLY","isSpecialistDate":false,"ticketState":"Выполняется","ticketStateId":1,"inventoryNumber":"777","applicant":{"fullName":"Алексей Карчевский","userName":"master","email":"a.karchevski@pflb.ru","location":"142784, г.Москва, Киевское шоссе, 22-й км,\nБП ComCity, домовл.6, стр.1","phone":"8 (000) 123-45-67","mobilePhone":"8 (000) 123-45-67","id":106},"categories":["Технологическое оборудование","Кассовый стол и гидаж","Турникеты, гидаж"],"category1":"Технологическое оборудование","category2":"Кассовый стол и гидаж","category3":"Турникеты, гидаж","location":"Изумрудная 14","address":"Изумрудная 14","actions":["assignContractor","solveTicket","cancelTicket","cancelTask","inventoryNumberChange","slaDateChange","specialistDateChange","comment"]},{"id":150671,"parentId":150671,"externalId":"TSK_1800000","header":"Треск и искрение в светильниках в рабочем режиме","text":"MX request","priority":"Низкий","createDate":1511190000000,"lastEditDate":1511190000000,"state":"Выполняется","stateId":1,"syncMask":"PORTAL_ONLY","isSpecialistDate":false,"ticketState":"Выполняется","ticketStateId":1,"inventoryNumber":"000010","applicant":{"fullName":"Алексей Карчевский","userName":"master","email":"a.karchevski@pflb.ru","location":"142784, г.Москва, Киевское шоссе, 22-й км,\nБП ComCity, домовл.6, стр.1","phone":"8 (000) 123-45-67","mobilePhone":"8 (000) 123-45-67","id":106},"categories":["Инженерия","Электрооборудование","Внутреннее освещение торгового зала и подсобных помещений"],"category1":"Инженерия","category2":"Электрооборудование","category3":"Внутреннее освещение торгового зала и подсобных помещений","location":"Изумрудная 14","address":"Изумрудная 14","actions":["assignContractor","solveTicket","cancelTicket","cancelTask","inventoryNumberChange","slaDateChange","specialistDateChange","comment"]},{"id":150670,"parentId":150670,"externalId":"TSK_1800000","header":"В холодильнике разбито/сломано","text":"testdescriptiontest","priority":"Низкий","createDate":1511190000000,"lastEditDate":1575473232344,"state":"Выполняется","stateId":1,"syncMask":"PORTAL_ONLY","isSpecialistDate":false,"ticketState":"Выполняется","ticketStateId":1,"inventoryNumber":"000010","applicant":{"fullName":"Алексей Карчевский","userName":"master","email":"a.karchevski@pflb.ru","location":"142784, г.Москва, Киевское шоссе, 22-й км,\nБП ComCity, домовл.6, стр.1","phone":"8 (000) 123-45-67","mobilePhone":"8 (000) 123-45-67","id":106},"contractor":{"id":9,"name":"2-Ремонт","organization":"Холодильное оборудование","company":"YYY","active":true},"categories":["Технологическое оборудование","Холодильное оборудование","Холодильный Шкаф на Складе"],"category1":"Технологическое оборудование","category2":"Холодильное оборудование","category3":"Холодильный Шкаф на Складе","location":"Изумрудная 14","address":"Изумрудная 14","actions":["assignContractor","solveTicket","cancelTicket","cancelTask","inventoryNumberChange","slaDateChange","specialistDateChange","comment"]},{"id":150667,"parentId":150667,"externalId":"TSK_1800000","header":"Не работает холодильник в столовой","text":"testdescriptiontest","priority":"Низкий","createDate":1511190000000,"lastEditDate":1575473208448,"state":"Выполняется","stateId":1,"viewed":true,"syncMask":"PORTAL_ONLY","isSpecialistDate":false,"ticketState":"Выполняется","ticketStateId":1,"applicant":{"fullName":"Алексей Карчевский","userName":"master","email":"a.karchevski@pflb.ru","location":"142784, г.Москва, Киевское шоссе, 22-й км,\nБП ComCity, домовл.6, стр.1","phone":"8 (000) 123-45-67","mobilePhone":"8 (000) 123-45-67","id":106},"contractor":{"id":9,"name":"2-Ремонт","organization":"Холодильное оборудование","company":"YYY","active":true},"categories":["Технологическое оборудование","Холодильное оборудование","Холодильная камера"],"category1":"Технологическое оборудование","category2":"Холодильное оборудование","category3":"Холодильная камера","location":"default location","address":"default location","actions":["assignContractor","solveTicket","cancelTicket","cancelTask","inventoryNumberChange","slaDateChange","specialistDateChange","comment"]},{"id":150657,"parentId":150657,"externalId":"TSK_1800000","header":"Не работает замок (нельзя Закрыть)","text":"testdescriptiontest","priority":"Низкий","createDate":1511190000000,"lastEditDate":1575472988710,"state":"Выполняется","stateId":1,"viewed":true,"syncMask":"PORTAL_ONLY","isSpecialistDate":false,"ticketState":"Выполняется","ticketStateId":1,"inventoryNumber":"000007","applicant":{"fullName":"Алексей Карчевский","userName":"master","email":"a.karchevski@pflb.ru","location":"142784, г.Москва, Киевское шоссе, 22-й км,\nБП ComCity, домовл.6, стр.1","phone":"8 (000) 123-45-67","mobilePhone":"8 (000) 123-45-67","id":106},"contractor":{"id":9,"name":"2-Ремонт","organization":"Холодильное оборудование","company":"YYY","active":true},"categories":["Технологическое оборудование","Банковское оборудование","Сейфы"],"category1":"Технологическое оборудование","category2":"Банковское оборудование","category3":"Сейфы","location":"Барклая 24","address":"Барклая 24","actions":["assignContractor","solveTicket","cancelTicket","cancelTask","inventoryNumberChange","slaDateChange","specialistDateChange","comment"]},{"id":150654,"parentId":150654,"externalId":"TSK_1800000","header":"Сломана кнопка лифта","text":"testdescriptiontest","priority":"Низкий","createDate":1511190000000,"lastEditDate":1575472977340,"state":"Выполняется","stateId":1,"viewed":true,"syncMask":"PORTAL_ONLY","isSpecialistDate":false,"ticketState":"Выполняется","ticketStateId":1,"applicant":{"fullName":"Алексей Карчевский","userName":"master","email":"a.karchevski@pflb.ru","location":"142784, г.Москва, Киевское шоссе, 22-й км,\nБП ComCity, домовл.6, стр.1","phone":"8 (000) 123-45-67","mobilePhone":"8 (000) 123-45-67","id":106},"contractor":{"id":9,"name":"2-Ремонт","organization":"Холодильное оборудование","company":"YYY","active":true},"categories":["Технологическое оборудование","Подъемные и передвижные механизмы","Пассажирские лифты"],"category1":"Технологическое оборудование","category2":"Подъемные и передвижные механизмы","category3":"Пассажирские лифты","location":"256 Бинарная ул. 16","address":"256 Бинарная ул. 16","actions":["assignContractor","solveTicket","cancelTicket","cancelTask","inventoryNumberChange","slaDateChange","specialistDateChange","comment"]},{"id":150652,"parentId":150652,"externalId":"TSK_1800000","header":"Пленка выгорела(требуется замена)","text":"MX request","priority":"Низкий","createDate":1511190000000,"lastEditDate":1511190000000,"state":"Выполняется","stateId":1,"viewed":true,"syncMask":"PORTAL_ONLY","isSpecialistDate":false,"ticketState":"Выполняется","ticketStateId":1,"inventoryNumber":"000006","applicant":{"fullName":"Алексей Карчевский","userName":"master","email":"a.karchevski@pflb.ru","location":"142784, г.Москва, Киевское шоссе, 22-й км,\nБП ComCity, домовл.6, стр.1","phone":"8 (000) 123-45-67","mobilePhone":"8 (000) 123-45-67","id":106},"categories":["Внешняя и внутренняя реклама","Наружняя реклама на фасаде (растяжки, пленка)"],"category1":"Внешняя и внутренняя реклама","category2":"Наружняя реклама на фасаде (растяжки, пленка)","location":"Барклая 24","address":"Барклая 24","actions":["assignContractor","solveTicket","cancelTicket","cancelTask","inventoryNumberChange","slaDateChange","specialistDateChange","comment"]}],"last":false,"totalElements":337,"totalPages":34,"size":10,"number":0,"sort":[{"direction":"DESC","property":"id","ignoreCase":false,"nullHandling":"NATIVE","ascending":false,"descending":true}],"numberOfElements":10,"first":true}