{"content":[{"id":149790,"applicant":{"fullName":"Алексей Карчевский","userName":"master","email":"a.karchevski@pflb.ru","location":"142784, г.Москва, Киевское шоссе, 22-й км,\nБП ComCity, домовл.6, стр.1","phone":"8 (000) 123-45-67","mobilePhone":"8 (000) 123-45-67","id":106},"header":"Поставка песко-соляной смеси","text":"Ogdanets text 5","createDate":1575042704087,"lastEditDate":1575042704091,"ticketState":"Новый","ticketStateId":-1,"serviceId":2792,"syncMask":"PORTAL_ONLY","location":"default location","address":"default location","categories":["Экология","Уборка помещений и прилегающей территории","Уборка прилегающей территории"],"category1":"Экология","category2":"Уборка помещений и прилегающей территории","category3":"Уборка прилегающей территории","openCommunications":0,"totalCommunications":0,"actions":[]},{"id":149789,"applicant":{"fullName":"Алексей Карчевский","userName":"master","email":"a.karchevski@pflb.ru","location":"142784, г.Москва, Киевское шоссе, 22-й км,\nБП ComCity, домовл.6, стр.1","phone":"8 (000) 123-45-67","mobilePhone":"8 (000) 123-45-67","id":106},"header":"Гриль не крутится","text":"Ogdanets text 1","createDate":1575042700076,"lastEditDate":1575042700080,"ticketState":"Новый","ticketStateId":-1,"serviceId":2900,"syncMask":"PORTAL_ONLY","location":"default location","address":"default location","categories":["Технологическое оборудование","Тепловое оборудование","Гриль"],"category1":"Технологическое оборудование","category2":"Тепловое оборудование","category3":"Гриль","openCommunications":0,"totalCommunications":0,"actions":[]},{"id":149788,"applicant":{"fullName":"Алексей Карчевский","userName":"master","email":"a.karchevski@pflb.ru","location":"142784, г.Москва, Киевское шоссе, 22-й км,\nБП ComCity, домовл.6, стр.1","phone":"8 (000) 123-45-67","mobilePhone":"8 (000) 123-45-67","id":106},"header":"Отсутствие инвентаря, необходимого для уборки","text":"Ogdanets text 1","createDate":1575042692618,"lastEditDate":1575042692622,"ticketState":"Новый","ticketStateId":-1,"serviceId":2799,"syncMask":"PORTAL_ONLY","location":"Изумрудная 14","address":"Изумрудная 14","categories":["Экология","Уборка помещений и прилегающей территории","Уборка помещений"],"category1":"Экология","category2":"Уборка помещений и прилегающей территории","category3":"Уборка помещений","openCommunications":0,"totalCommunications":0,"actions":[]},{"id":149787,"applicant":{"fullName":"Алексей Карчевский","userName":"master","email":"a.karchevski@pflb.ru","location":"142784, г.Москва, Киевское шоссе, 22-й км,\nБП ComCity, домовл.6, стр.1","phone":"8 (000) 123-45-67","mobilePhone":"8 (000) 123-45-67","id":106},"header":"Ключ сломан в замке (сейф Открыт)","text":"Ogdanets text 2","createDate":1575042685371,"lastEditDate":1575042685375,"ticketState":"Новый","ticketStateId":-1,"serviceId":3002,"syncMask":"PORTAL_ONLY","location":"256 Бинарная ул. 16","address":"256 Бинарная ул. 16","categories":["Технологическое оборудование","Банковское оборудование","Сейфы"],"category1":"Технологическое оборудование","category2":"Банковское оборудование","category3":"Сейфы","openCommunications":0,"totalCommunications":0,"actions":[]},{"id":149786,"applicant":{"fullName":"Алексей Карчевский","userName":"master","email":"a.karchevski@pflb.ru","location":"142784, г.Москва, Киевское шоссе, 22-й км,\nБП ComCity, домовл.6, стр.1","phone":"8 (000) 123-45-67","mobilePhone":"8 (000) 123-45-67","id":106},"header":"Отсутствие индикации на электронном табло теплосчётчика","text":"Ogdanets text 3","createDate":1575042678471,"lastEditDate":1575042678475,"ticketState":"Новый","ticketStateId":-1,"serviceId":2826,"syncMask":"PORTAL_ONLY","location":"Барклая 24","address":"Барклая 24","categories":["Инженерия","Измерительные приборы","Счетчик тепла"],"category1":"Инженерия","category2":"Измерительные приборы","category3":"Счетчик тепла","openCommunications":0,"totalCommunications":0,"actions":[]},{"id":149785,"applicant":{"fullName":"Алексей Карчевский","userName":"master","email":"a.karchevski@pflb.ru","location":"142784, г.Москва, Киевское шоссе, 22-й км,\nБП ComCity, домовл.6, стр.1","phone":"8 (000) 123-45-67","mobilePhone":"8 (000) 123-45-67","id":106},"director":{"fullName":"Васильев Павел1","userName":"director_1","email":"director@mail.com","location":"location","address":"152 Скотопрогонная ул. 13","phone":"+79778334486","mobilePhone":"8 (000) 123-45-67","workPhone":"+79778334486","organization":"organization","id":101122},"header":"Ключ сломан в замке (сейф Закрыт)","text":"Ogdanets text 4","createDate":1575042671424,"lastEditDate":1575042671428,"ticketState":"Новый","ticketStateId":-1,"serviceId":3001,"syncMask":"PORTAL_ONLY","location":"152 Скотопрогонная ул. 13","address":"152 Скотопрогонная ул. 13","categories":["Технологическое оборудование","Банковское оборудование","Сейфы"],"category1":"Технологическое оборудование","category2":"Банковское оборудование","category3":"Сейфы","openCommunications":0,"totalCommunications":0,"actions":[]},{"id":149784,"applicant":{"fullName":"Алексей Карчевский","userName":"master","email":"a.karchevski@pflb.ru","location":"142784, г.Москва, Киевское шоссе, 22-й км,\nБП ComCity, домовл.6, стр.1","phone":"8 (000) 123-45-67","mobilePhone":"8 (000) 123-45-67","id":106},"director":{"fullName":"Васильев Павел1","userName":"director_1","email":"director@mail.com","location":"location","address":"152 Скотопрогонная ул. 13","phone":"+79778334486","mobilePhone":"8 (000) 123-45-67","workPhone":"+79778334486","organization":"organization","id":101122},"header":"От двери отваливаются детали","text":"Ogdanets text 3","createDate":1575042664516,"lastEditDate":1575042664520,"ticketState":"Новый","ticketStateId":-1,"serviceId":2941,"syncMask":"PORTAL_ONLY","location":"152 Скотопрогонная ул. 13","address":"152 Скотопрогонная ул. 13","categories":["Технологическое оборудование","Автоматические  ворота и двери","Секционые ворота"],"category1":"Технологическое оборудование","category2":"Автоматические  ворота и двери","category3":"Секционые ворота","openCommunications":0,"totalCommunications":0,"actions":[]},{"id":149783,"applicant":{"fullName":"Алексей Карчевский","userName":"master","email":"a.karchevski@pflb.ru","location":"142784, г.Москва, Киевское шоссе, 22-й км,\nБП ComCity, домовл.6, стр.1","phone":"8 (000) 123-45-67","mobilePhone":"8 (000) 123-45-67","id":106},"header":"Разбито стекло на двери","text":"Ogdanets text 1","createDate":1575042660756,"lastEditDate":1575042660760,"ticketState":"Новый","ticketStateId":-1,"serviceId":2894,"syncMask":"PORTAL_ONLY","location":"default location","address":"default location","categories":["Технологическое оборудование","Тепловое оборудование","Печь для выпечки"],"category1":"Технологическое оборудование","category2":"Тепловое оборудование","category3":"Печь для выпечки","openCommunications":0,"totalCommunications":0,"actions":[]},{"id":149782,"applicant":{"fullName":"Алексей Карчевский","userName":"master","email":"a.karchevski@pflb.ru","location":"142784, г.Москва, Киевское шоссе, 22-й км,\nБП ComCity, домовл.6, стр.1","phone":"8 (000) 123-45-67","mobilePhone":"8 (000) 123-45-67","id":106},"header":"DESCRIPTION","text":"Ogdanets text 5","createDate":1575042657191,"lastEditDate":1575042657195,"ticketState":"Новый","ticketStateId":-1,"serviceId":2501,"syncMask":"PORTAL_ONLY","location":"default location","address":"default location","categories":["NAME1","NAME2","NAME3"],"category1":"NAME1","category2":"NAME2","category3":"NAME3","openCommunications":0,"totalCommunications":0,"actions":[]},{"id":149781,"applicant":{"fullName":"Алексей Карчевский","userName":"master","email":"a.karchevski@pflb.ru","location":"142784, г.Москва, Киевское шоссе, 22-й км,\nБП ComCity, домовл.6, стр.1","phone":"8 (000) 123-45-67","mobilePhone":"8 (000) 123-45-67","id":106},"header":"Очистка кровли от снега и наледи","text":"Ogdanets text 3","createDate":1575042650832,"lastEditDate":1575042650836,"ticketState":"Новый","ticketStateId":-1,"serviceId":2793,"syncMask":"PORTAL_ONLY","location":"default location","address":"default location","categories":["Экология","Уборка помещений и прилегающей территории","Уборка прилегающей территории"],"category1":"Экология","category2":"Уборка помещений и прилегающей территории","category3":"Уборка прилегающей территории","openCommunications":0,"totalCommunications":0,"actions":[]}],"last":false,"totalElements":629,"totalPages":63,"size":10,"number":0,"sort":[{"direction":"DESC","property":"id","ignoreCase":false,"nullHandling":"NATIVE","ascending":false,"descending":true}],"numberOfElements":10,"first":true}