{"content":[{"id":150676,"applicant":{"fullName":"Алексей Карчевский","userName":"master","email":"a.karchevski@pflb.ru","location":"142784, г.Москва, Киевское шоссе, 22-й км,\nБП ComCity, домовл.6, стр.1","phone":"8 (000) 123-45-67","mobilePhone":"8 (000) 123-45-67","id":106},"header":"Отсутствие индикации на контрольных приборах","text":"MX request","createDate":1575473306555,"lastEditDate":1575473306558,"ticketState":"Новый","ticketStateId":-1,"serviceId":2844,"inventoryNumber":"000006","inventoryId":6,"syncMask":"PORTAL_ONLY","location":"Барклая 24","address":"Барклая 24","categories":["Инженерия","Газовое оборудование","Газовое оборудование"],"category1":"Инженерия","category2":"Газовое оборудование","category3":"Газовое оборудование","openCommunications":0,"totalCommunications":0,"actions":[]},{"id":150675,"applicant":{"fullName":"Алексей Карчевский","userName":"master","email":"a.karchevski@pflb.ru","location":"142784, г.Москва, Киевское шоссе, 22-й км,\nБП ComCity, домовл.6, стр.1","phone":"8 (000) 123-45-67","mobilePhone":"8 (000) 123-45-67","id":106},"header":"Шкаф издаёт посторонние звуки","text":"MX request","createDate":1575473294175,"lastEditDate":1575473294178,"ticketState":"Новый","ticketStateId":-1,"serviceId":2983,"inventoryNumber":"000006","inventoryId":6,"syncMask":"PORTAL_ONLY","location":"Барклая 24","address":"Барклая 24","categories":["Технологическое оборудование","Холодильное оборудование","Холодильный Шкаф на Складе"],"category1":"Технологическое оборудование","category2":"Холодильное оборудование","category3":"Холодильный Шкаф на Складе","openCommunications":0,"totalCommunications":0,"actions":[]},{"id":150674,"applicant":{"fullName":"Алексей Карчевский","userName":"master","email":"a.karchevski@pflb.ru","location":"142784, г.Москва, Киевское шоссе, 22-й км,\nБП ComCity, домовл.6, стр.1","phone":"8 (000) 123-45-67","mobilePhone":"8 (000) 123-45-67","id":106},"header":"Вентиляция издает посторонние звуки/запахи","text":"MX request","createDate":1575473280632,"lastEditDate":1575473280636,"ticketState":"Новый","ticketStateId":-1,"serviceId":2937,"inventoryNumber":"000010","inventoryId":10,"syncMask":"PORTAL_ONLY","location":"Изумрудная 14","address":"Изумрудная 14","categories":["Технологическое оборудование","Климатическое оборудование","Система вентиляции"],"category1":"Технологическое оборудование","category2":"Климатическое оборудование","category3":"Система вентиляции","openCommunications":0,"totalCommunications":0,"actions":[]},{"id":150673,"applicant":{"fullName":"Алексей Карчевский","userName":"master","email":"a.karchevski@pflb.ru","location":"142784, г.Москва, Киевское шоссе, 22-й км,\nБП ComCity, домовл.6, стр.1","phone":"8 (000) 123-45-67","mobilePhone":"8 (000) 123-45-67","id":106},"header":"Шатается вертушка(калитка)","text":"MX request","createDate":1575473262821,"lastEditDate":1575473262836,"ticketState":"Новый","ticketStateId":-1,"serviceId":2887,"inventoryNumber":"777","inventoryId":11,"syncMask":"PORTAL_ONLY","location":"Изумрудная 14","address":"Изумрудная 14","categories":["Технологическое оборудование","Кассовый стол и гидаж","Турникеты, гидаж"],"category1":"Технологическое оборудование","category2":"Кассовый стол и гидаж","category3":"Турникеты, гидаж","openCommunications":0,"totalCommunications":0,"actions":[]},{"id":150671,"applicant":{"fullName":"Алексей Карчевский","userName":"master","email":"a.karchevski@pflb.ru","location":"142784, г.Москва, Киевское шоссе, 22-й км,\nБП ComCity, домовл.6, стр.1","phone":"8 (000) 123-45-67","mobilePhone":"8 (000) 123-45-67","id":106},"header":"Треск и искрение в светильниках в рабочем режиме","text":"MX request","createDate":1575473232663,"lastEditDate":1575473232668,"ticketState":"Новый","ticketStateId":-1,"serviceId":2837,"inventoryNumber":"000010","inventoryId":10,"syncMask":"PORTAL_ONLY","location":"Изумрудная 14","address":"Изумрудная 14","categories":["Инженерия","Электрооборудование","Внутреннее освещение торгового зала и подсобных помещений"],"category1":"Инженерия","category2":"Электрооборудование","category3":"Внутреннее освещение торгового зала и подсобных помещений","openCommunications":0,"totalCommunications":0,"actions":[]},{"id":150670,"applicant":{"fullName":"Алексей Карчевский","userName":"master","email":"a.karchevski@pflb.ru","location":"142784, г.Москва, Киевское шоссе, 22-й км,\nБП ComCity, домовл.6, стр.1","phone":"8 (000) 123-45-67","mobilePhone":"8 (000) 123-45-67","id":106},"contractor":{"id":9,"name":"2-Ремонт","organization":"Холодильное оборудование","company":"YYY","active":true},"header":"В холодильнике разбито/сломано","text":"testdescriptiontest","createDate":1575473232337,"lastEditDate":1575473232344,"ticketState":"Выполняется","ticketStateId":1,"serviceId":2984,"inventoryNumber":"000010","inventoryId":10,"syncMask":"PORTAL_ONLY","location":"Изумрудная 14","address":"Изумрудная 14","taskId":150670,"taskState":"Выполняется","taskStateId":1,"categories":["Технологическое оборудование","Холодильное оборудование","Холодильный Шкаф на Складе"],"category1":"Технологическое оборудование","category2":"Холодильное оборудование","category3":"Холодильный Шкаф на Складе","canBeCanceled":true,"openCommunications":0,"totalCommunications":0,"actions":["assignContractor","solveTicket","cancelTicket","cancelTask","inventoryNumberChange","slaDateChange","specialistDateChange","comment"]},{"id":150667,"applicant":{"fullName":"Алексей Карчевский","userName":"master","email":"a.karchevski@pflb.ru","location":"142784, г.Москва, Киевское шоссе, 22-й км,\nБП ComCity, домовл.6, стр.1","phone":"8 (000) 123-45-67","mobilePhone":"8 (000) 123-45-67","id":106},"contractor":{"id":9,"name":"2-Ремонт","organization":"Холодильное оборудование","company":"YYY","active":true},"header":"Не работает холодильник в столовой","text":"testdescriptiontest","createDate":1575473208443,"lastEditDate":1575473208448,"ticketState":"Выполняется","ticketStateId":1,"serviceId":2964,"syncMask":"PORTAL_ONLY","location":"default location","address":"default location","taskId":150667,"taskState":"Выполняется","taskStateId":1,"categories":["Технологическое оборудование","Холодильное оборудование","Холодильная камера"],"category1":"Технологическое оборудование","category2":"Холодильное оборудование","category3":"Холодильная камера","canBeCanceled":true,"openCommunications":0,"totalCommunications":0,"actions":["assignContractor","solveTicket","cancelTicket","cancelTask","inventoryNumberChange","slaDateChange","specialistDateChange","comment"]},{"id":150666,"applicant":{"fullName":"Алексей Карчевский","userName":"master","email":"a.karchevski@pflb.ru","location":"142784, г.Москва, Киевское шоссе, 22-й км,\nБП ComCity, домовл.6, стр.1","phone":"8 (000) 123-45-67","mobilePhone":"8 (000) 123-45-67","id":106},"contractor":{"id":9,"name":"2-Ремонт","organization":"Холодильное оборудование","company":"YYY","active":true},"header":"Разовое предоставление роторной  машины с применением специализированных средств","text":"testdescriptiontest","createDate":1575473206643,"lastEditDate":1575473206647,"ticketState":"Выполняется","ticketStateId":1,"serviceId":2803,"syncMask":"PORTAL_ONLY","location":"default location","address":"default location","taskId":150666,"taskState":"Выполняется","taskStateId":1,"categories":["Экология","Уборка помещений и прилегающей территории","Уборка помещений"],"category1":"Экология","category2":"Уборка помещений и прилегающей территории","category3":"Уборка помещений","canBeCanceled":true,"openCommunications":0,"totalCommunications":0,"actions":["assignContractor","solveTicket","cancelTicket","cancelTask","inventoryNumberChange","slaDateChange","specialistDateChange","comment"]},{"id":150661,"applicant":{"fullName":"Алексей Карчевский","userName":"master","email":"a.karchevski@pflb.ru","location":"142784, г.Москва, Киевское шоссе, 22-й км,\nБП ComCity, домовл.6, стр.1","phone":"8 (000) 123-45-67","mobilePhone":"8 (000) 123-45-67","id":106},"director":{"fullName":"Васильев Павел1","userName":"director_1","email":"director@mail.com","location":"location","address":"152 Скотопрогонная ул. 13","phone":"+79778334486","mobilePhone":"8 (000) 123-45-67","workPhone":"+79778334486","organization":"organization","id":101122},"header":"Требуется дополнительный вывоз вторсырья","text":"Ogdanets text 2","createDate":1575473146457,"lastEditDate":1575473146461,"ticketState":"Новый","ticketStateId":-1,"serviceId":2812,"syncMask":"PORTAL_ONLY","location":"152 Скотопрогонная ул. 13","address":"152 Скотопрогонная ул. 13","categories":["Экология","Вторсырье","Заказ дополнительного вывоза вторсырья"],"category1":"Экология","category2":"Вторсырье","category3":"Заказ дополнительного вывоза вторсырья","openCommunications":0,"totalCommunications":0,"actions":[]},{"id":150660,"applicant":{"fullName":"Алексей Карчевский","userName":"master","email":"a.karchevski@pflb.ru","location":"142784, г.Москва, Киевское шоссе, 22-й км,\nБП ComCity, домовл.6, стр.1","phone":"8 (000) 123-45-67","mobilePhone":"8 (000) 123-45-67","id":106},"header":"Не характерный шум","text":"Ogdanets text 2","createDate":1575473137895,"lastEditDate":1575473137898,"ticketState":"Новый","ticketStateId":-1,"serviceId":2846,"syncMask":"PORTAL_ONLY","location":"256 Бинарная ул. 16","address":"256 Бинарная ул. 16","categories":["Инженерия","Газовое оборудование","Газовое оборудование"],"category1":"Инженерия","category2":"Газовое оборудование","category3":"Газовое оборудование","openCommunications":0,"totalCommunications":0,"actions":[]}],"last":false,"totalElements":608,"totalPages":61,"size":10,"number":0,"sort":[{"direction":"DESC","property":"id","ignoreCase":false,"nullHandling":"NATIVE","ascending":false,"descending":true}],"numberOfElements":10,"first":true}