{"content":[{"id":150748,"applicant":{"fullName":"Алексей Карчевский","userName":"master","email":"a.karchevski@pflb.ru","location":"142784, г.Москва, Киевское шоссе, 22-й км,\nБП ComCity, домовл.6, стр.1","phone":"8 (000) 123-45-67","mobilePhone":"8 (000) 123-45-67","id":106},"header":"Не работает холодильник в столовой","text":"Ogdanets text 1","createDate":1575474814187,"lastEditDate":1575474814191,"ticketState":"Новый","ticketStateId":-1,"serviceId":2964,"syncMask":"PORTAL_ONLY","location":"256 Бинарная ул. 16","address":"256 Бинарная ул. 16","categories":["Технологическое оборудование","Холодильное оборудование","Холодильная камера"],"category1":"Технологическое оборудование","category2":"Холодильное оборудование","category3":"Холодильная камера","openCommunications":0,"totalCommunications":0,"actions":[]},{"id":150747,"applicant":{"fullName":"Алексей Карчевский","userName":"master","email":"a.karchevski@pflb.ru","location":"142784, г.Москва, Киевское шоссе, 22-й км,\nБП ComCity, домовл.6, стр.1","phone":"8 (000) 123-45-67","mobilePhone":"8 (000) 123-45-67","id":106},"header":"Отсутствие индикации (не вращаются ролики или индикации электр. табло)","text":"Ogdanets text 1","createDate":1575474747025,"lastEditDate":1575474747029,"ticketState":"Новый","ticketStateId":-1,"serviceId":2822,"syncMask":"PORTAL_ONLY","location":"256 Бинарная ул. 16","address":"256 Бинарная ул. 16","categories":["Инженерия","Измерительные приборы","Электросчетчик"],"category1":"Инженерия","category2":"Измерительные приборы","category3":"Электросчетчик","openCommunications":0,"totalCommunications":0,"actions":[]},{"id":150746,"applicant":{"fullName":"Алексей Карчевский","userName":"master","email":"a.karchevski@pflb.ru","location":"142784, г.Москва, Киевское шоссе, 22-й км,\nБП ComCity, домовл.6, стр.1","phone":"8 (000) 123-45-67","mobilePhone":"8 (000) 123-45-67","id":106},"header":"Не работает морозильный ЛАРЬ Бонета(указать какую температуру показывает)","text":"Ogdanets text 1","createDate":1575474737645,"lastEditDate":1575474737649,"ticketState":"Новый","ticketStateId":-1,"serviceId":2986,"syncMask":"PORTAL_ONLY","location":"Изумрудная 14","address":"Изумрудная 14","categories":["Технологическое оборудование","Холодильное оборудование","Ларь Бонета"],"category1":"Технологическое оборудование","category2":"Холодильное оборудование","category3":"Ларь Бонета","openCommunications":0,"totalCommunications":0,"actions":[]},{"id":150745,"applicant":{"fullName":"Алексей Карчевский","userName":"master","email":"a.karchevski@pflb.ru","location":"142784, г.Москва, Киевское шоссе, 22-й км,\nБП ComCity, домовл.6, стр.1","phone":"8 (000) 123-45-67","mobilePhone":"8 (000) 123-45-67","id":106},"director":{"fullName":"Васильев Павел1","userName":"director_1","email":"director@mail.com","location":"location","address":"152 Скотопрогонная ул. 13","phone":"+79778334486","mobilePhone":"8 (000) 123-45-67","workPhone":"+79778334486","organization":"organization","id":101122},"contractor":{"id":9,"name":"2-Ремонт","organization":"Холодильное оборудование","company":"YYY","active":true},"header":"Не работает Ларь БОНЕТА (указать какую температуру показывает)","text":"testdescriptiontest","createDate":1575474669450,"lastEditDate":1575474669456,"ticketState":"Выполняется","ticketStateId":1,"serviceId":2985,"syncMask":"PORTAL_ONLY","location":"152 Скотопрогонная ул. 13","address":"152 Скотопрогонная ул. 13","taskId":150745,"taskState":"Выполняется","taskStateId":1,"categories":["Технологическое оборудование","Холодильное оборудование","Ларь Бонета"],"category1":"Технологическое оборудование","category2":"Холодильное оборудование","category3":"Ларь Бонета","canBeCanceled":true,"openCommunications":0,"totalCommunications":0,"actions":["assignContractor","solveTicket","cancelTicket","cancelTask","inventoryNumberChange","slaDateChange","specialistDateChange","comment"]},{"id":150743,"applicant":{"fullName":"Алексей Карчевский","userName":"master","email":"a.karchevski@pflb.ru","location":"142784, г.Москва, Киевское шоссе, 22-й км,\nБП ComCity, домовл.6, стр.1","phone":"8 (000) 123-45-67","mobilePhone":"8 (000) 123-45-67","id":106},"contractor":{"id":9,"name":"2-Ремонт","organization":"Холодильное оборудование","company":"YYY","active":true},"header":"Отсутсвие общего электропитания на магазине","text":"testdescriptiontest","createDate":1575474657222,"lastEditDate":1575474657229,"ticketState":"Выполняется","ticketStateId":1,"serviceId":2831,"syncMask":"PORTAL_ONLY","location":"default location","address":"default location","taskId":150743,"taskState":"Выполняется","taskStateId":1,"categories":["Инженерия","Электрооборудование","Электрощитовая"],"category1":"Инженерия","category2":"Электрооборудование","category3":"Электрощитовая","canBeCanceled":true,"openCommunications":0,"totalCommunications":0,"actions":["assignContractor","solveTicket","cancelTicket","cancelTask","inventoryNumberChange","slaDateChange","specialistDateChange","comment"]},{"id":150741,"applicant":{"fullName":"Алексей Карчевский","userName":"master","email":"a.karchevski@pflb.ru","location":"142784, г.Москва, Киевское шоссе, 22-й км,\nБП ComCity, домовл.6, стр.1","phone":"8 (000) 123-45-67","mobilePhone":"8 (000) 123-45-67","id":106},"director":{"fullName":"Васильев Павел1","userName":"director_1","email":"director@mail.com","location":"location","address":"152 Скотопрогонная ул. 13","phone":"+79778334486","mobilePhone":"8 (000) 123-45-67","workPhone":"+79778334486","organization":"organization","id":101122},"contractor":{"id":9,"name":"2-Ремонт","organization":"Холодильное оборудование","company":"YYY","active":true},"header":"Снять /повесить акционный баннер","text":"testdescriptiontest","createDate":1575474624882,"lastEditDate":1575474624887,"ticketState":"Выполняется","ticketStateId":1,"serviceId":3196,"syncMask":"PORTAL_ONLY","location":"152 Скотопрогонная ул. 13","address":"152 Скотопрогонная ул. 13","taskId":150741,"taskState":"Выполняется","taskStateId":1,"categories":["Внешняя и внутренняя реклама","Акционный баннер на фасаде"],"category1":"Внешняя и внутренняя реклама","category2":"Акционный баннер на фасаде","canBeCanceled":true,"openCommunications":0,"totalCommunications":0,"actions":["assignContractor","solveTicket","cancelTicket","cancelTask","inventoryNumberChange","slaDateChange","specialistDateChange","comment"]},{"id":150740,"applicant":{"fullName":"Алексей Карчевский","userName":"master","email":"a.karchevski@pflb.ru","location":"142784, г.Москва, Киевское шоссе, 22-й км,\nБП ComCity, домовл.6, стр.1","phone":"8 (000) 123-45-67","mobilePhone":"8 (000) 123-45-67","id":106},"contractor":{"id":9,"name":"2-Ремонт","organization":"Холодильное оборудование","company":"YYY","active":true},"header":"Посадка кустарников","text":"testdescriptiontest","createDate":1575474621469,"lastEditDate":1575474621475,"ticketState":"Выполняется","ticketStateId":1,"serviceId":2786,"inventoryNumber":"000009","inventoryId":9,"syncMask":"PORTAL_ONLY","location":"Изумрудная 14","address":"Изумрудная 14","taskId":150740,"taskState":"Выполняется","taskStateId":1,"categories":["Экология","Уборка помещений и прилегающей территории","Уборка прилегающей территории"],"category1":"Экология","category2":"Уборка помещений и прилегающей территории","category3":"Уборка прилегающей территории","canBeCanceled":true,"openCommunications":0,"totalCommunications":0,"actions":["assignContractor","solveTicket","cancelTicket","cancelTask","inventoryNumberChange","slaDateChange","specialistDateChange","comment"]},{"id":150737,"applicant":{"fullName":"Алексей Карчевский","userName":"master","email":"a.karchevski@pflb.ru","location":"142784, г.Москва, Киевское шоссе, 22-й км,\nБП ComCity, домовл.6, стр.1","phone":"8 (000) 123-45-67","mobilePhone":"8 (000) 123-45-67","id":106},"director":{"fullName":"Васильев Павел1","userName":"director_1","email":"director@mail.com","location":"location","address":"152 Скотопрогонная ул. 13","phone":"+79778334486","mobilePhone":"8 (000) 123-45-67","workPhone":"+79778334486","organization":"organization","id":101122},"header":"Касса бьёт током","text":"Ogdanets text 1","createDate":1575474590430,"lastEditDate":1575474590435,"ticketState":"Новый","ticketStateId":-1,"serviceId":2885,"syncMask":"PORTAL_ONLY","location":"152 Скотопрогонная ул. 13","address":"152 Скотопрогонная ул. 13","categories":["Технологическое оборудование","Кассовый стол и гидаж","Кассовый стол (педаль, лента транспортера)"],"category1":"Технологическое оборудование","category2":"Кассовый стол и гидаж","category3":"Кассовый стол (педаль, лента транспортера)","openCommunications":0,"totalCommunications":0,"actions":[]},{"id":150736,"applicant":{"fullName":"Алексей Карчевский","userName":"master","email":"a.karchevski@pflb.ru","location":"142784, г.Москва, Киевское шоссе, 22-й км,\nБП ComCity, домовл.6, стр.1","phone":"8 (000) 123-45-67","mobilePhone":"8 (000) 123-45-67","id":106},"director":{"fullName":"Васильев Павел1","userName":"director_1","email":"director@mail.com","location":"location","address":"152 Скотопрогонная ул. 13","phone":"+79778334486","mobilePhone":"8 (000) 123-45-67","workPhone":"+79778334486","organization":"organization","id":101122},"contractor":{"id":9,"name":"2-Ремонт","organization":"Холодильное оборудование","company":"YYY","active":true},"header":"Не работает холодильный шкаф (указать, какую температуру показывает)","text":"testdescriptiontest","createDate":1575474588309,"lastEditDate":1575474588315,"ticketState":"Выполняется","ticketStateId":1,"serviceId":2962,"syncMask":"PORTAL_ONLY","location":"152 Скотопрогонная ул. 13","address":"152 Скотопрогонная ул. 13","taskId":150736,"taskState":"Выполняется","taskStateId":1,"categories":["Технологическое оборудование","Холодильное оборудование","Холодильная камера"],"category1":"Технологическое оборудование","category2":"Холодильное оборудование","category3":"Холодильная камера","canBeCanceled":true,"openCommunications":0,"totalCommunications":0,"actions":["assignContractor","solveTicket","cancelTicket","cancelTask","inventoryNumberChange","slaDateChange","specialistDateChange","comment"]},{"id":150734,"applicant":{"fullName":"Алексей Карчевский","userName":"master","email":"a.karchevski@pflb.ru","location":"142784, г.Москва, Киевское шоссе, 22-й км,\nБП ComCity, домовл.6, стр.1","phone":"8 (000) 123-45-67","mobilePhone":"8 (000) 123-45-67","id":106},"director":{"fullName":"Васильев Павел1","userName":"director_1","email":"director@mail.com","location":"location","address":"152 Скотопрогонная ул. 13","phone":"+79778334486","mobilePhone":"8 (000) 123-45-67","workPhone":"+79778334486","organization":"organization","id":101122},"header":"Шатаются стойки ограждения","text":"Ogdanets text 1","createDate":1575474575727,"lastEditDate":1575474575740,"ticketState":"Новый","ticketStateId":-1,"serviceId":2886,"syncMask":"PORTAL_ONLY","location":"152 Скотопрогонная ул. 13","address":"152 Скотопрогонная ул. 13","categories":["Технологическое оборудование","Кассовый стол и гидаж","Турникеты, гидаж"],"category1":"Технологическое оборудование","category2":"Кассовый стол и гидаж","category3":"Турникеты, гидаж","openCommunications":0,"totalCommunications":0,"actions":[]}],"last":false,"totalElements":611,"totalPages":62,"size":10,"number":0,"sort":[{"direction":"DESC","property":"id","ignoreCase":false,"nullHandling":"NATIVE","ascending":false,"descending":true}],"numberOfElements":10,"first":true}