{"content":[{"id":149978,"applicant":{"fullName":"Алексей Карчевский","userName":"master","email":"a.karchevski@pflb.ru","location":"142784, г.Москва, Киевское шоссе, 22-й км,\nБП ComCity, домовл.6, стр.1","phone":"8 (000) 123-45-67","mobilePhone":"8 (000) 123-45-67","id":106},"header":"Сломан замок, отсутствует ключ","text":"DTelekhin test description","createDate":1575455317833,"lastEditDate":1575455317837,"ticketState":"Новый","ticketStateId":-1,"serviceId":3197,"syncMask":"PORTAL_ONLY","location":"default location","address":"default location","categories":["Инженерия","Камеры  хранения","Покупательские камеры  хранения"],"category1":"Инженерия","category2":"Камеры  хранения","category3":"Покупательские камеры  хранения","openCommunications":0,"totalCommunications":0,"actions":[]},{"id":149977,"applicant":{"fullName":"Алексей Карчевский","userName":"master","email":"a.karchevski@pflb.ru","location":"142784, г.Москва, Киевское шоссе, 22-й км,\nБП ComCity, домовл.6, стр.1","phone":"8 (000) 123-45-67","mobilePhone":"8 (000) 123-45-67","id":106},"header":"Уборка и содержание прилегающей территории от снега с использованием механизированных средств","text":"Ogdanets text 1","createDate":1575454372046,"lastEditDate":1575454372050,"ticketState":"Новый","ticketStateId":-1,"serviceId":2795,"syncMask":"PORTAL_ONLY","location":"Барклая 24","address":"Барклая 24","categories":["Экология","Уборка помещений и прилегающей территории","Уборка прилегающей территории"],"category1":"Экология","category2":"Уборка помещений и прилегающей территории","category3":"Уборка прилегающей территории","openCommunications":0,"totalCommunications":0,"actions":[]},{"id":149976,"applicant":{"fullName":"Алексей Карчевский","userName":"master","email":"a.karchevski@pflb.ru","location":"142784, г.Москва, Киевское шоссе, 22-й км,\nБП ComCity, домовл.6, стр.1","phone":"8 (000) 123-45-67","mobilePhone":"8 (000) 123-45-67","id":106},"header":"Нет вывоза вторичного сырья","text":"Ogdanets text 1","createDate":1575454326805,"lastEditDate":1575454326809,"ticketState":"Новый","ticketStateId":-1,"serviceId":2813,"viewed":true,"syncMask":"PORTAL_ONLY","location":"256 Бинарная ул. 16","address":"256 Бинарная ул. 16","categories":["Экология","Вторсырье","Нарушение графика вывоза вторсырья"],"category1":"Экология","category2":"Вторсырье","category3":"Нарушение графика вывоза вторсырья","openCommunications":0,"totalCommunications":0,"actions":[]},{"id":149975,"applicant":{"fullName":"Алексей Карчевский","userName":"master","email":"a.karchevski@pflb.ru","location":"142784, г.Москва, Киевское шоссе, 22-й км,\nБП ComCity, домовл.6, стр.1","phone":"8 (000) 123-45-67","mobilePhone":"8 (000) 123-45-67","id":106},"director":{"fullName":"Васильев Павел1","userName":"director_1","email":"director@mail.com","location":"location","address":"152 Скотопрогонная ул. 13","phone":"+79778334486","mobilePhone":"8 (000) 123-45-67","workPhone":"+79778334486","organization":"organization","id":101122},"header":"Очистка кровли от снега и наледи","text":"Ogdanets text 1","createDate":1575454278596,"lastEditDate":1575454278600,"ticketState":"Новый","ticketStateId":-1,"serviceId":2793,"syncMask":"PORTAL_ONLY","location":"152 Скотопрогонная ул. 13","address":"152 Скотопрогонная ул. 13","categories":["Экология","Уборка помещений и прилегающей территории","Уборка прилегающей территории"],"category1":"Экология","category2":"Уборка помещений и прилегающей территории","category3":"Уборка прилегающей территории","openCommunications":0,"totalCommunications":0,"actions":[]},{"id":149974,"applicant":{"fullName":"Алексей Карчевский","userName":"master","email":"a.karchevski@pflb.ru","location":"142784, г.Москва, Киевское шоссе, 22-й км,\nБП ComCity, домовл.6, стр.1","phone":"8 (000) 123-45-67","mobilePhone":"8 (000) 123-45-67","id":106},"header":"Требуется закрепить тепловую завесу","text":"Ogdanets text 1","createDate":1575454243013,"lastEditDate":1575454243017,"ticketState":"Новый","ticketStateId":-1,"serviceId":2911,"syncMask":"PORTAL_ONLY","location":"default location","address":"default location","categories":["Технологическое оборудование","Инженерное оборудование","Тепловая завеса"],"category1":"Технологическое оборудование","category2":"Инженерное оборудование","category3":"Тепловая завеса","openCommunications":0,"totalCommunications":0,"actions":[]},{"id":149973,"applicant":{"fullName":"Алексей Карчевский","userName":"master","email":"a.karchevski@pflb.ru","location":"142784, г.Москва, Киевское шоссе, 22-й км,\nБП ComCity, домовл.6, стр.1","phone":"8 (000) 123-45-67","mobilePhone":"8 (000) 123-45-67","id":106},"header":"Холодильник издаёт посторонние звуки","text":"Ogdanets text 1","createDate":1575454046234,"lastEditDate":1575454046239,"ticketState":"Новый","ticketStateId":-1,"serviceId":2974,"syncMask":"PORTAL_ONLY","location":"256 Бинарная ул. 16","address":"256 Бинарная ул. 16","categories":["Технологическое оборудование","Холодильное оборудование","Холодильная пристенная горка"],"category1":"Технологическое оборудование","category2":"Холодильное оборудование","category3":"Холодильная пристенная горка","openCommunications":0,"totalCommunications":0,"actions":[]},{"id":149972,"applicant":{"fullName":"Алексей Карчевский","userName":"master","email":"a.karchevski@pflb.ru","location":"142784, г.Москва, Киевское шоссе, 22-й км,\nБП ComCity, домовл.6, стр.1","phone":"8 (000) 123-45-67","mobilePhone":"8 (000) 123-45-67","id":106},"header":"Отсутствие пломб","text":"Agalarov.A.99812749","createDate":1575454024629,"lastEditDate":1575454024633,"ticketState":"Новый","ticketStateId":-1,"serviceId":2821,"inventoryNumber":"000006","inventoryId":6,"syncMask":"PORTAL_ONLY","location":"Барклая 24","address":"Барклая 24","categories":["Инженерия","Измерительные приборы","Электросчетчик"],"category1":"Инженерия","category2":"Измерительные приборы","category3":"Электросчетчик","openCommunications":0,"totalCommunications":0,"actions":[]},{"id":149971,"applicant":{"fullName":"Алексей Карчевский","userName":"master","email":"a.karchevski@pflb.ru","location":"142784, г.Москва, Киевское шоссе, 22-й км,\nБП ComCity, домовл.6, стр.1","phone":"8 (000) 123-45-67","mobilePhone":"8 (000) 123-45-67","id":106},"header":"Нет вывоза вторичного сырья","text":"Agalarov.A.79768662","createDate":1575454008881,"lastEditDate":1575454008885,"ticketState":"Новый","ticketStateId":-1,"serviceId":2813,"syncMask":"PORTAL_ONLY","location":"default location","address":"default location","categories":["Экология","Вторсырье","Нарушение графика вывоза вторсырья"],"category1":"Экология","category2":"Вторсырье","category3":"Нарушение графика вывоза вторсырья","openCommunications":0,"totalCommunications":0,"actions":[]},{"id":149970,"applicant":{"fullName":"Алексей Карчевский","userName":"master","email":"a.karchevski@pflb.ru","location":"142784, г.Москва, Киевское шоссе, 22-й км,\nБП ComCity, домовл.6, стр.1","phone":"8 (000) 123-45-67","mobilePhone":"8 (000) 123-45-67","id":106},"header":"Санитарная обрезка кустарников","text":"Ogdanets text 5","createDate":1575453989896,"lastEditDate":1575453989900,"ticketState":"Новый","ticketStateId":-1,"serviceId":2794,"syncMask":"PORTAL_ONLY","location":"Барклая 24","address":"Барклая 24","categories":["Экология","Уборка помещений и прилегающей территории","Уборка прилегающей территории"],"category1":"Экология","category2":"Уборка помещений и прилегающей территории","category3":"Уборка прилегающей территории","openCommunications":0,"totalCommunications":0,"actions":[]},{"id":149969,"applicant":{"fullName":"Алексей Карчевский","userName":"master","email":"a.karchevski@pflb.ru","location":"142784, г.Москва, Киевское шоссе, 22-й км,\nБП ComCity, домовл.6, стр.1","phone":"8 (000) 123-45-67","mobilePhone":"8 (000) 123-45-67","id":106},"header":"Необходим ремонт ограждений(дверок)","text":"Agalarov.A.18480908","createDate":1575453985239,"lastEditDate":1575453985243,"ticketState":"Новый","ticketStateId":-1,"serviceId":2916,"syncMask":"PORTAL_ONLY","location":"default location","address":"default location","categories":["Технологическое оборудование","Подъемные и передвижные механизмы","Эскалатор, лифт, подъемник"],"category1":"Технологическое оборудование","category2":"Подъемные и передвижные механизмы","category3":"Эскалатор, лифт, подъемник","openCommunications":0,"totalCommunications":0,"actions":[]}],"last":false,"totalElements":465,"totalPages":47,"size":10,"number":0,"sort":[{"direction":"DESC","property":"id","ignoreCase":false,"nullHandling":"NATIVE","ascending":false,"descending":true}],"numberOfElements":10,"first":true}