{"content":[{"id":149774,"applicant":{"fullName":"Алексей Карчевский","userName":"master","email":"a.karchevski@pflb.ru","location":"142784, г.Москва, Киевское шоссе, 22-й км,\nБП ComCity, домовл.6, стр.1","phone":"8 (000) 123-45-67","mobilePhone":"8 (000) 123-45-67","id":106},"header":"Холодильник издает посторонние звуки","text":"Ogdanets text 3","createDate":1575042608180,"lastEditDate":1575042608184,"ticketState":"Новый","ticketStateId":-1,"serviceId":2970,"syncMask":"PORTAL_ONLY","location":"default location","address":"default location","categories":["Технологическое оборудование","Холодильное оборудование","Икорный/Бытовой холодильник"],"category1":"Технологическое оборудование","category2":"Холодильное оборудование","category3":"Икорный/Бытовой холодильник","openCommunications":0,"totalCommunications":0,"actions":[]},{"id":149773,"applicant":{"fullName":"Алексей Карчевский","userName":"master","email":"a.karchevski@pflb.ru","location":"142784, г.Москва, Киевское шоссе, 22-й км,\nБП ComCity, домовл.6, стр.1","phone":"8 (000) 123-45-67","mobilePhone":"8 (000) 123-45-67","id":106},"header":"В холодильнике не горит свет","text":"Ogdanets text 4","createDate":1575042427488,"lastEditDate":1575042427492,"ticketState":"Выполняется","ticketStateId":1,"serviceId":2976,"syncMask":"PORTAL_ONLY","location":"256 Бинарная ул. 16","address":"256 Бинарная ул. 16","taskId":149773,"taskState":"Решена","taskStateId":2,"categories":["Технологическое оборудование","Холодильное оборудование","Холодильная пристенная горка"],"category1":"Технологическое оборудование","category2":"Холодильное оборудование","category3":"Холодильная пристенная горка","canBeCanceled":true,"openCommunications":0,"totalCommunications":0,"actions":["solveTicket","cancelTicket","inventoryNumberChange","slaDateChange","comment"]},{"id":149772,"applicant":{"fullName":"Алексей Карчевский","userName":"master","email":"a.karchevski@pflb.ru","location":"142784, г.Москва, Киевское шоссе, 22-й км,\nБП ComCity, домовл.6, стр.1","phone":"8 (000) 123-45-67","mobilePhone":"8 (000) 123-45-67","id":106},"director":{"fullName":"Васильев Павел1","userName":"director_1","email":"director@mail.com","location":"location","address":"152 Скотопрогонная ул. 13","phone":"+79778334486","mobilePhone":"8 (000) 123-45-67","workPhone":"+79778334486","organization":"organization","id":101122},"header":"Тепловая завеса издает посторонние звуки/запахи","text":"Ogdanets text 1","createDate":1575042420756,"lastEditDate":1575042420760,"ticketState":"Выполняется","ticketStateId":1,"serviceId":2910,"syncMask":"PORTAL_ONLY","location":"152 Скотопрогонная ул. 13","address":"152 Скотопрогонная ул. 13","taskId":149772,"taskState":"Решена","taskStateId":2,"categories":["Технологическое оборудование","Инженерное оборудование","Тепловая завеса"],"category1":"Технологическое оборудование","category2":"Инженерное оборудование","category3":"Тепловая завеса","canBeCanceled":true,"openCommunications":0,"totalCommunications":0,"actions":["solveTicket","cancelTicket","inventoryNumberChange","slaDateChange","comment"]},{"id":149771,"applicant":{"fullName":"Алексей Карчевский","userName":"master","email":"a.karchevski@pflb.ru","location":"142784, г.Москва, Киевское шоссе, 22-й км,\nБП ComCity, домовл.6, стр.1","phone":"8 (000) 123-45-67","mobilePhone":"8 (000) 123-45-67","id":106},"header":"Промывка твердого покрытия мест размещения контейнеров ТБО, мест установки бункеров","text":"Ogdanets text 1","createDate":1575042414234,"lastEditDate":1575042414238,"ticketState":"Выполняется","ticketStateId":1,"serviceId":2796,"syncMask":"PORTAL_ONLY","location":"default location","address":"default location","taskId":149771,"taskState":"Решена","taskStateId":2,"categories":["Экология","Уборка помещений и прилегающей территории","Уборка прилегающей территории"],"category1":"Экология","category2":"Уборка помещений и прилегающей территории","category3":"Уборка прилегающей территории","canBeCanceled":true,"openCommunications":0,"totalCommunications":0,"actions":["solveTicket","cancelTicket","inventoryNumberChange","slaDateChange","comment"]},{"id":149770,"applicant":{"fullName":"Алексей Карчевский","userName":"master","email":"a.karchevski@pflb.ru","location":"142784, г.Москва, Киевское шоссе, 22-й км,\nБП ComCity, домовл.6, стр.1","phone":"8 (000) 123-45-67","mobilePhone":"8 (000) 123-45-67","id":106},"header":"Разбито стекло на двери","text":"Ogdanets text 4","createDate":1575042410613,"lastEditDate":1575042410617,"ticketState":"Выполняется","ticketStateId":1,"serviceId":2899,"syncMask":"PORTAL_ONLY","location":"default location","address":"default location","taskId":149770,"taskState":"Решена","taskStateId":2,"categories":["Технологическое оборудование","Тепловое оборудование","Гриль"],"category1":"Технологическое оборудование","category2":"Тепловое оборудование","category3":"Гриль","canBeCanceled":true,"openCommunications":0,"totalCommunications":0,"actions":["solveTicket","cancelTicket","inventoryNumberChange","slaDateChange","comment"]},{"id":149769,"applicant":{"fullName":"Алексей Карчевский","userName":"master","email":"a.karchevski@pflb.ru","location":"142784, г.Москва, Киевское шоссе, 22-й км,\nБП ComCity, домовл.6, стр.1","phone":"8 (000) 123-45-67","mobilePhone":"8 (000) 123-45-67","id":106},"header":"От двери отваливаются детали","text":"Ogdanets text 4","createDate":1575042403340,"lastEditDate":1575042403345,"ticketState":"Выполняется","ticketStateId":1,"serviceId":2941,"syncMask":"PORTAL_ONLY","location":"Изумрудная 14","address":"Изумрудная 14","taskId":149769,"taskState":"Решена","taskStateId":2,"categories":["Технологическое оборудование","Автоматические  ворота и двери","Секционые ворота"],"category1":"Технологическое оборудование","category2":"Автоматические  ворота и двери","category3":"Секционые ворота","canBeCanceled":true,"openCommunications":0,"totalCommunications":0,"actions":["solveTicket","cancelTicket","inventoryNumberChange","slaDateChange","comment"]},{"id":149768,"applicant":{"fullName":"Алексей Карчевский","userName":"master","email":"a.karchevski@pflb.ru","location":"142784, г.Москва, Киевское шоссе, 22-й км,\nБП ComCity, домовл.6, стр.1","phone":"8 (000) 123-45-67","mobilePhone":"8 (000) 123-45-67","id":106},"director":{"fullName":"Васильев Павел1","userName":"director_1","email":"director@mail.com","location":"location","address":"152 Скотопрогонная ул. 13","phone":"+79778334486","mobilePhone":"8 (000) 123-45-67","workPhone":"+79778334486","organization":"organization","id":101122},"header":"Наличие пыли, посторонних предметов, не исправные замки или их отсутствие на шкафах","text":"Ogdanets text 4","createDate":1575042396093,"lastEditDate":1575042396097,"ticketState":"Выполняется","ticketStateId":1,"serviceId":2828,"syncMask":"PORTAL_ONLY","location":"152 Скотопрогонная ул. 13","address":"152 Скотопрогонная ул. 13","taskId":149768,"taskState":"Решена","taskStateId":2,"categories":["Инженерия","Электрооборудование","Электрощитовая"],"category1":"Инженерия","category2":"Электрооборудование","category3":"Электрощитовая","canBeCanceled":true,"openCommunications":0,"totalCommunications":0,"actions":["solveTicket","cancelTicket","inventoryNumberChange","slaDateChange","comment"]},{"id":149767,"applicant":{"fullName":"Алексей Карчевский","userName":"master","email":"a.karchevski@pflb.ru","location":"142784, г.Москва, Киевское шоссе, 22-й км,\nБП ComCity, домовл.6, стр.1","phone":"8 (000) 123-45-67","mobilePhone":"8 (000) 123-45-67","id":106},"header":"Сломан замок, отсутствует ключ","text":"Ogdanets text 5","createDate":1575042388667,"lastEditDate":1575042388671,"ticketState":"Выполняется","ticketStateId":1,"serviceId":3197,"syncMask":"PORTAL_ONLY","location":"256 Бинарная ул. 16","address":"256 Бинарная ул. 16","taskId":149767,"taskState":"Решена","taskStateId":2,"categories":["Инженерия","Камеры  хранения","Покупательские камеры  хранения"],"category1":"Инженерия","category2":"Камеры  хранения","category3":"Покупательские камеры  хранения","canBeCanceled":true,"openCommunications":0,"totalCommunications":0,"actions":["solveTicket","cancelTicket","inventoryNumberChange","slaDateChange","comment"]},{"id":149766,"applicant":{"fullName":"Алексей Карчевский","userName":"master","email":"a.karchevski@pflb.ru","location":"142784, г.Москва, Киевское шоссе, 22-й км,\nБП ComCity, домовл.6, стр.1","phone":"8 (000) 123-45-67","mobilePhone":"8 (000) 123-45-67","id":106},"header":"Необходимо оттаить Ларь Бонету(указать количество)","text":"Ogdanets text 5","createDate":1575042384997,"lastEditDate":1575042385001,"ticketState":"Выполняется","ticketStateId":1,"serviceId":2987,"syncMask":"PORTAL_ONLY","location":"default location","address":"default location","taskId":149766,"taskState":"Решена","taskStateId":2,"categories":["Технологическое оборудование","Холодильное оборудование","Ларь Бонета"],"category1":"Технологическое оборудование","category2":"Холодильное оборудование","category3":"Ларь Бонета","canBeCanceled":true,"openCommunications":0,"totalCommunications":0,"actions":["solveTicket","cancelTicket","inventoryNumberChange","slaDateChange","comment"]},{"id":149765,"applicant":{"fullName":"Алексей Карчевский","userName":"master","email":"a.karchevski@pflb.ru","location":"142784, г.Москва, Киевское шоссе, 22-й км,\nБП ComCity, домовл.6, стр.1","phone":"8 (000) 123-45-67","mobilePhone":"8 (000) 123-45-67","id":106},"header":"Сломана педаль","text":"Ogdanets text 4","createDate":1575042377391,"lastEditDate":1575042377394,"ticketState":"Выполняется","ticketStateId":1,"serviceId":2881,"syncMask":"PORTAL_ONLY","location":"256 Бинарная ул. 16","address":"256 Бинарная ул. 16","taskId":149765,"taskState":"Решена","taskStateId":2,"categories":["Технологическое оборудование","Кассовый стол и гидаж","Кассовый стол (педаль, лента транспортера)"],"category1":"Технологическое оборудование","category2":"Кассовый стол и гидаж","category3":"Кассовый стол (педаль, лента транспортера)","canBeCanceled":true,"openCommunications":0,"totalCommunications":0,"actions":["solveTicket","cancelTicket","inventoryNumberChange","slaDateChange","comment"]}],"last":false,"totalElements":613,"totalPages":62,"size":10,"number":0,"sort":[{"direction":"DESC","property":"id","ignoreCase":false,"nullHandling":"NATIVE","ascending":false,"descending":true}],"numberOfElements":10,"first":true}