{"content":[{"id":150694,"applicant":{"fullName":"Алексей Карчевский","userName":"master","email":"a.karchevski@pflb.ru","location":"142784, г.Москва, Киевское шоссе, 22-й км,\nБП ComCity, домовл.6, стр.1","phone":"8 (000) 123-45-67","mobilePhone":"8 (000) 123-45-67","id":106},"header":"Лифт издает посторонние звуки","text":"testdescriptiontest","createDate":1575473648936,"lastEditDate":1575473648941,"ticketState":"Новый","ticketStateId":-1,"serviceId":2925,"syncMask":"PORTAL_ONLY","location":"default location","address":"default location","categories":["Технологическое оборудование","Подъемные и передвижные механизмы","Пассажирские лифты"],"category1":"Технологическое оборудование","category2":"Подъемные и передвижные механизмы","category3":"Пассажирские лифты","openCommunications":0,"totalCommunications":0,"actions":[]},{"id":150693,"applicant":{"fullName":"Алексей Карчевский","userName":"master","email":"a.karchevski@pflb.ru","location":"142784, г.Москва, Киевское шоссе, 22-й км,\nБП ComCity, домовл.6, стр.1","phone":"8 (000) 123-45-67","mobilePhone":"8 (000) 123-45-67","id":106},"header":"Конденстор поврежден [указать чем/кем]","text":"MX request","createDate":1575473638937,"lastEditDate":1575473638942,"ticketState":"Новый","ticketStateId":-1,"serviceId":2956,"inventoryNumber":"000010","inventoryId":10,"syncMask":"PORTAL_ONLY","location":"Изумрудная 14","address":"Изумрудная 14","categories":["Технологическое оборудование","Холодильное оборудование","Центральная холодильная машина, конденсатор"],"category1":"Технологическое оборудование","category2":"Холодильное оборудование","category3":"Центральная холодильная машина, конденсатор","openCommunications":0,"totalCommunications":0,"actions":[]},{"id":150692,"applicant":{"fullName":"Алексей Карчевский","userName":"master","email":"a.karchevski@pflb.ru","location":"142784, г.Москва, Киевское шоссе, 22-й км,\nБП ComCity, домовл.6, стр.1","phone":"8 (000) 123-45-67","mobilePhone":"8 (000) 123-45-67","id":106},"director":{"fullName":"Васильев Павел1","userName":"director_1","email":"director@mail.com","location":"location","address":"152 Скотопрогонная ул. 13","phone":"+79778334486","mobilePhone":"8 (000) 123-45-67","workPhone":"+79778334486","organization":"organization","id":101122},"header":"В холодильнике разбито/сломано","text":"testdescriptiontest","createDate":1575473638815,"lastEditDate":1575473638900,"ticketState":"Новый","ticketStateId":-1,"serviceId":2984,"syncMask":"PORTAL_ONLY","location":"152 Скотопрогонная ул. 13","address":"152 Скотопрогонная ул. 13","categories":["Технологическое оборудование","Холодильное оборудование","Холодильный Шкаф на Складе"],"category1":"Технологическое оборудование","category2":"Холодильное оборудование","category3":"Холодильный Шкаф на Складе","openCommunications":0,"totalCommunications":0,"actions":[]},{"id":150691,"applicant":{"fullName":"Алексей Карчевский","userName":"master","email":"a.karchevski@pflb.ru","location":"142784, г.Москва, Киевское шоссе, 22-й км,\nБП ComCity, домовл.6, стр.1","phone":"8 (000) 123-45-67","mobilePhone":"8 (000) 123-45-67","id":106},"contractor":{"id":9,"name":"2-Ремонт","organization":"Холодильное оборудование","company":"YYY","active":true},"header":"Нет вывоза ТБО","text":"testdescriptiontest","createDate":1575473462045,"lastEditDate":1575473462052,"ticketState":"Выполняется","ticketStateId":1,"serviceId":2781,"syncMask":"PORTAL_ONLY","location":"default location","address":"default location","taskId":150691,"taskState":"Выполняется","taskStateId":1,"categories":["Экология","Вывоз мусора","Нарушение графика вывоза мусора"],"category1":"Экология","category2":"Вывоз мусора","category3":"Нарушение графика вывоза мусора","canBeCanceled":true,"openCommunications":0,"totalCommunications":0,"actions":["assignContractor","solveTicket","cancelTicket","cancelTask","inventoryNumberChange","slaDateChange","specialistDateChange","comment"]},{"id":150690,"applicant":{"fullName":"Алексей Карчевский","userName":"master","email":"a.karchevski@pflb.ru","location":"142784, г.Москва, Киевское шоссе, 22-й км,\nБП ComCity, домовл.6, стр.1","phone":"8 (000) 123-45-67","mobilePhone":"8 (000) 123-45-67","id":106},"contractor":{"id":9,"name":"2-Ремонт","organization":"Холодильное оборудование","company":"YYY","active":true},"header":"Сломана кнопка лифта","text":"testdescriptiontest","createDate":1575473458288,"lastEditDate":1575473458350,"ticketState":"Выполняется","ticketStateId":1,"serviceId":2924,"inventoryNumber":"000009","inventoryId":9,"syncMask":"PORTAL_ONLY","location":"Изумрудная 14","address":"Изумрудная 14","taskId":150690,"taskState":"Выполняется","taskStateId":1,"categories":["Технологическое оборудование","Подъемные и передвижные механизмы","Пассажирские лифты"],"category1":"Технологическое оборудование","category2":"Подъемные и передвижные механизмы","category3":"Пассажирские лифты","canBeCanceled":true,"openCommunications":0,"totalCommunications":0,"actions":["assignContractor","solveTicket","cancelTicket","cancelTask","inventoryNumberChange","slaDateChange","specialistDateChange","comment"]},{"id":150689,"applicant":{"fullName":"Алексей Карчевский","userName":"master","email":"a.karchevski@pflb.ru","location":"142784, г.Москва, Киевское шоссе, 22-й км,\nБП ComCity, домовл.6, стр.1","phone":"8 (000) 123-45-67","mobilePhone":"8 (000) 123-45-67","id":106},"contractor":{"id":9,"name":"2-Ремонт","organization":"Холодильное оборудование","company":"YYY","active":true},"header":"Замена фасадной плитки (м2)","text":"testdescriptiontest","createDate":1575473449936,"lastEditDate":1575473449941,"ticketState":"Выполняется","ticketStateId":1,"serviceId":2871,"syncMask":"PORTAL_ONLY","location":"default location","address":"default location","taskId":150689,"taskState":"Выполняется","taskStateId":1,"categories":["Инженерия","Части здания","Ремонт фасада (обшивка стен, плитка, штукатурка)"],"category1":"Инженерия","category2":"Части здания","category3":"Ремонт фасада (обшивка стен, плитка, штукатурка)","canBeCanceled":true,"openCommunications":0,"totalCommunications":0,"actions":["assignContractor","solveTicket","cancelTicket","cancelTask","inventoryNumberChange","slaDateChange","specialistDateChange","comment"]},{"id":150688,"applicant":{"fullName":"Алексей Карчевский","userName":"master","email":"a.karchevski@pflb.ru","location":"142784, г.Москва, Киевское шоссе, 22-й км,\nБП ComCity, домовл.6, стр.1","phone":"8 (000) 123-45-67","mobilePhone":"8 (000) 123-45-67","id":106},"contractor":{"id":9,"name":"2-Ремонт","organization":"Холодильное оборудование","company":"YYY","active":true},"header":"От двери отваливаются детали","text":"testdescriptiontest","createDate":1575473447895,"lastEditDate":1575473447905,"ticketState":"Выполняется","ticketStateId":1,"serviceId":2941,"syncMask":"PORTAL_ONLY","location":"default location","address":"default location","taskId":150688,"taskState":"Выполняется","taskStateId":1,"categories":["Технологическое оборудование","Автоматические  ворота и двери","Секционые ворота"],"category1":"Технологическое оборудование","category2":"Автоматические  ворота и двери","category3":"Секционые ворота","canBeCanceled":true,"openCommunications":0,"totalCommunications":0,"actions":["assignContractor","solveTicket","cancelTicket","cancelTask","inventoryNumberChange","slaDateChange","specialistDateChange","comment"]},{"id":150687,"applicant":{"fullName":"Алексей Карчевский","userName":"master","email":"a.karchevski@pflb.ru","location":"142784, г.Москва, Киевское шоссе, 22-й км,\nБП ComCity, домовл.6, стр.1","phone":"8 (000) 123-45-67","mobilePhone":"8 (000) 123-45-67","id":106},"contractor":{"id":9,"name":"2-Ремонт","organization":"Холодильное оборудование","company":"YYY","active":true},"header":"Отсутсвие общего электропитания на магазине","text":"testdescriptiontest","createDate":1575473441749,"lastEditDate":1575473441753,"ticketState":"Выполняется","ticketStateId":1,"serviceId":2831,"inventoryNumber":"000007","inventoryId":7,"syncMask":"PORTAL_ONLY","location":"Барклая 24","address":"Барклая 24","taskId":150687,"taskState":"Выполняется","taskStateId":1,"categories":["Инженерия","Электрооборудование","Электрощитовая"],"category1":"Инженерия","category2":"Электрооборудование","category3":"Электрощитовая","canBeCanceled":true,"openCommunications":0,"totalCommunications":0,"actions":["assignContractor","solveTicket","cancelTicket","cancelTask","inventoryNumberChange","slaDateChange","specialistDateChange","comment"]},{"id":150686,"applicant":{"fullName":"Алексей Карчевский","userName":"master","email":"a.karchevski@pflb.ru","location":"142784, г.Москва, Киевское шоссе, 22-й км,\nБП ComCity, домовл.6, стр.1","phone":"8 (000) 123-45-67","mobilePhone":"8 (000) 123-45-67","id":106},"director":{"fullName":"Васильев Павел1","userName":"director_1","email":"director@mail.com","location":"location","address":"152 Скотопрогонная ул. 13","phone":"+79778334486","mobilePhone":"8 (000) 123-45-67","workPhone":"+79778334486","organization":"organization","id":101122},"contractor":{"id":9,"name":"2-Ремонт","organization":"Холодильное оборудование","company":"YYY","active":true},"header":"Вывоз снега с территории с погрузкой в бункер (количество м3 снега)","text":"testdescriptiontest","createDate":1575473438355,"lastEditDate":1575473438361,"ticketState":"Выполняется","ticketStateId":1,"serviceId":2785,"syncMask":"PORTAL_ONLY","location":"152 Скотопрогонная ул. 13","address":"152 Скотопрогонная ул. 13","taskId":150686,"taskState":"Выполняется","taskStateId":1,"categories":["Экология","Уборка помещений и прилегающей территории","Уборка прилегающей территории"],"category1":"Экология","category2":"Уборка помещений и прилегающей территории","category3":"Уборка прилегающей территории","canBeCanceled":true,"openCommunications":0,"totalCommunications":0,"actions":["assignContractor","solveTicket","cancelTicket","cancelTask","inventoryNumberChange","slaDateChange","specialistDateChange","comment"]},{"id":150685,"applicant":{"fullName":"Алексей Карчевский","userName":"master","email":"a.karchevski@pflb.ru","location":"142784, г.Москва, Киевское шоссе, 22-й км,\nБП ComCity, домовл.6, стр.1","phone":"8 (000) 123-45-67","mobilePhone":"8 (000) 123-45-67","id":106},"contractor":{"id":9,"name":"2-Ремонт","organization":"Холодильное оборудование","company":"YYY","active":true},"header":"Нет вывоза ТБО","text":"testdescriptiontest","createDate":1575473430050,"lastEditDate":1575473430061,"ticketState":"Выполняется","ticketStateId":1,"serviceId":2781,"inventoryNumber":"000007","inventoryId":7,"syncMask":"PORTAL_ONLY","location":"Барклая 24","address":"Барклая 24","taskId":150685,"taskState":"Выполняется","taskStateId":1,"categories":["Экология","Вывоз мусора","Нарушение графика вывоза мусора"],"category1":"Экология","category2":"Вывоз мусора","category3":"Нарушение графика вывоза мусора","canBeCanceled":true,"openCommunications":0,"totalCommunications":0,"actions":["assignContractor","solveTicket","cancelTicket","cancelTask","inventoryNumberChange","slaDateChange","specialistDateChange","comment"]}],"last":false,"totalElements":620,"totalPages":62,"size":10,"number":0,"sort":[{"direction":"DESC","property":"id","ignoreCase":false,"nullHandling":"NATIVE","ascending":false,"descending":true}],"numberOfElements":10,"first":true}