{"content":[{"id":150694,"parentId":150694,"externalId":"TSK_1800000","header":"Лифт издает посторонние звуки","text":"testdescriptiontest","priority":"Низкий","createDate":1511190000000,"lastEditDate":1575473648941,"state":"Выполняется","stateId":1,"syncMask":"PORTAL_ONLY","isSpecialistDate":false,"ticketState":"Выполняется","ticketStateId":1,"applicant":{"fullName":"Алексей Карчевский","userName":"master","email":"a.karchevski@pflb.ru","location":"142784, г.Москва, Киевское шоссе, 22-й км,\nБП ComCity, домовл.6, стр.1","phone":"8 (000) 123-45-67","mobilePhone":"8 (000) 123-45-67","id":106},"contractor":{"id":9,"name":"2-Ремонт","organization":"Холодильное оборудование","company":"YYY","active":true},"categories":["Технологическое оборудование","Подъемные и передвижные механизмы","Пассажирские лифты"],"category1":"Технологическое оборудование","category2":"Подъемные и передвижные механизмы","category3":"Пассажирские лифты","location":"default location","address":"default location","actions":["assignContractor","solveTicket","cancelTicket","cancelTask","inventoryNumberChange","slaDateChange","specialistDateChange","comment"]},{"id":150692,"parentId":150692,"externalId":"TSK_1800000","header":"В холодильнике разбито/сломано","text":"testdescriptiontest","priority":"Низкий","createDate":1511190000000,"lastEditDate":1575473638900,"state":"Выполняется","stateId":1,"syncMask":"PORTAL_ONLY","isSpecialistDate":false,"ticketState":"Выполняется","ticketStateId":1,"applicant":{"fullName":"Алексей Карчевский","userName":"master","email":"a.karchevski@pflb.ru","location":"142784, г.Москва, Киевское шоссе, 22-й км,\nБП ComCity, домовл.6, стр.1","phone":"8 (000) 123-45-67","mobilePhone":"8 (000) 123-45-67","id":106},"director":{"fullName":"Васильев Павел1","userName":"director_1","email":"director@mail.com","location":"location","address":"152 Скотопрогонная ул. 13","phone":"+79778334486","mobilePhone":"8 (000) 123-45-67","workPhone":"+79778334486","organization":"organization","id":101122},"contractor":{"id":9,"name":"2-Ремонт","organization":"Холодильное оборудование","company":"YYY","active":true},"categories":["Технологическое оборудование","Холодильное оборудование","Холодильный Шкаф на Складе"],"category1":"Технологическое оборудование","category2":"Холодильное оборудование","category3":"Холодильный Шкаф на Складе","location":"152 Скотопрогонная ул. 13","address":"152 Скотопрогонная ул. 13","actions":["assignContractor","solveTicket","cancelTicket","cancelTask","inventoryNumberChange","slaDateChange","specialistDateChange","comment"]},{"id":150691,"parentId":150691,"externalId":"TSK_1800000","header":"Нет вывоза ТБО","text":"testdescriptiontest","priority":"Низкий","createDate":1511190000000,"lastEditDate":1575473462052,"state":"Выполняется","stateId":1,"viewed":true,"syncMask":"PORTAL_ONLY","isSpecialistDate":false,"ticketState":"Выполняется","ticketStateId":1,"applicant":{"fullName":"Алексей Карчевский","userName":"master","email":"a.karchevski@pflb.ru","location":"142784, г.Москва, Киевское шоссе, 22-й км,\nБП ComCity, домовл.6, стр.1","phone":"8 (000) 123-45-67","mobilePhone":"8 (000) 123-45-67","id":106},"contractor":{"id":9,"name":"2-Ремонт","organization":"Холодильное оборудование","company":"YYY","active":true},"categories":["Экология","Вывоз мусора","Нарушение графика вывоза мусора"],"category1":"Экология","category2":"Вывоз мусора","category3":"Нарушение графика вывоза мусора","location":"default location","address":"default location","actions":["assignContractor","solveTicket","cancelTicket","cancelTask","inventoryNumberChange","slaDateChange","specialistDateChange","comment"]},{"id":150690,"parentId":150690,"externalId":"TSK_1800000","header":"Сломана кнопка лифта","text":"testdescriptiontest","priority":"Низкий","createDate":1511190000000,"lastEditDate":1575473458350,"state":"Выполняется","stateId":1,"syncMask":"PORTAL_ONLY","isSpecialistDate":false,"ticketState":"Выполняется","ticketStateId":1,"inventoryNumber":"000009","applicant":{"fullName":"Алексей Карчевский","userName":"master","email":"a.karchevski@pflb.ru","location":"142784, г.Москва, Киевское шоссе, 22-й км,\nБП ComCity, домовл.6, стр.1","phone":"8 (000) 123-45-67","mobilePhone":"8 (000) 123-45-67","id":106},"contractor":{"id":9,"name":"2-Ремонт","organization":"Холодильное оборудование","company":"YYY","active":true},"categories":["Технологическое оборудование","Подъемные и передвижные механизмы","Пассажирские лифты"],"category1":"Технологическое оборудование","category2":"Подъемные и передвижные механизмы","category3":"Пассажирские лифты","location":"Изумрудная 14","address":"Изумрудная 14","actions":["assignContractor","solveTicket","cancelTicket","cancelTask","inventoryNumberChange","slaDateChange","specialistDateChange","comment"]},{"id":150689,"parentId":150689,"externalId":"TSK_1800000","header":"Замена фасадной плитки (м2)","text":"testdescriptiontest","priority":"Низкий","createDate":1511190000000,"lastEditDate":1575473449941,"state":"Выполняется","stateId":1,"syncMask":"PORTAL_ONLY","isSpecialistDate":false,"ticketState":"Выполняется","ticketStateId":1,"applicant":{"fullName":"Алексей Карчевский","userName":"master","email":"a.karchevski@pflb.ru","location":"142784, г.Москва, Киевское шоссе, 22-й км,\nБП ComCity, домовл.6, стр.1","phone":"8 (000) 123-45-67","mobilePhone":"8 (000) 123-45-67","id":106},"contractor":{"id":9,"name":"2-Ремонт","organization":"Холодильное оборудование","company":"YYY","active":true},"categories":["Инженерия","Части здания","Ремонт фасада (обшивка стен, плитка, штукатурка)"],"category1":"Инженерия","category2":"Части здания","category3":"Ремонт фасада (обшивка стен, плитка, штукатурка)","location":"default location","address":"default location","actions":["assignContractor","solveTicket","cancelTicket","cancelTask","inventoryNumberChange","slaDateChange","specialistDateChange","comment"]},{"id":150688,"parentId":150688,"externalId":"TSK_1800000","header":"От двери отваливаются детали","text":"testdescriptiontest","priority":"Низкий","createDate":1511190000000,"lastEditDate":1575473447905,"state":"Выполняется","stateId":1,"syncMask":"PORTAL_ONLY","isSpecialistDate":false,"ticketState":"Выполняется","ticketStateId":1,"applicant":{"fullName":"Алексей Карчевский","userName":"master","email":"a.karchevski@pflb.ru","location":"142784, г.Москва, Киевское шоссе, 22-й км,\nБП ComCity, домовл.6, стр.1","phone":"8 (000) 123-45-67","mobilePhone":"8 (000) 123-45-67","id":106},"contractor":{"id":9,"name":"2-Ремонт","organization":"Холодильное оборудование","company":"YYY","active":true},"categories":["Технологическое оборудование","Автоматические  ворота и двери","Секционые ворота"],"category1":"Технологическое оборудование","category2":"Автоматические  ворота и двери","category3":"Секционые ворота","location":"default location","address":"default location","actions":["assignContractor","solveTicket","cancelTicket","cancelTask","inventoryNumberChange","slaDateChange","specialistDateChange","comment"]},{"id":150687,"parentId":150687,"externalId":"TSK_1800000","header":"Отсутсвие общего электропитания на магазине","text":"testdescriptiontest","priority":"Низкий","createDate":1511190000000,"lastEditDate":1575473441753,"state":"Выполняется","stateId":1,"viewed":true,"syncMask":"PORTAL_ONLY","isSpecialistDate":false,"ticketState":"Выполняется","ticketStateId":1,"inventoryNumber":"000007","applicant":{"fullName":"Алексей Карчевский","userName":"master","email":"a.karchevski@pflb.ru","location":"142784, г.Москва, Киевское шоссе, 22-й км,\nБП ComCity, домовл.6, стр.1","phone":"8 (000) 123-45-67","mobilePhone":"8 (000) 123-45-67","id":106},"contractor":{"id":9,"name":"2-Ремонт","organization":"Холодильное оборудование","company":"YYY","active":true},"categories":["Инженерия","Электрооборудование","Электрощитовая"],"category1":"Инженерия","category2":"Электрооборудование","category3":"Электрощитовая","location":"Барклая 24","address":"Барклая 24","actions":["assignContractor","solveTicket","cancelTicket","cancelTask","inventoryNumberChange","slaDateChange","specialistDateChange","comment"]},{"id":150686,"parentId":150686,"externalId":"TSK_1800000","header":"Вывоз снега с территории с погрузкой в бункер (количество м3 снега)","text":"testdescriptiontest","priority":"Низкий","createDate":1511190000000,"lastEditDate":1575473438361,"state":"Выполняется","stateId":1,"viewed":true,"syncMask":"PORTAL_ONLY","isSpecialistDate":false,"ticketState":"Выполняется","ticketStateId":1,"applicant":{"fullName":"Алексей Карчевский","userName":"master","email":"a.karchevski@pflb.ru","location":"142784, г.Москва, Киевское шоссе, 22-й км,\nБП ComCity, домовл.6, стр.1","phone":"8 (000) 123-45-67","mobilePhone":"8 (000) 123-45-67","id":106},"director":{"fullName":"Васильев Павел1","userName":"director_1","email":"director@mail.com","location":"location","address":"152 Скотопрогонная ул. 13","phone":"+79778334486","mobilePhone":"8 (000) 123-45-67","workPhone":"+79778334486","organization":"organization","id":101122},"contractor":{"id":9,"name":"2-Ремонт","organization":"Холодильное оборудование","company":"YYY","active":true},"categories":["Экология","Уборка помещений и прилегающей территории","Уборка прилегающей территории"],"category1":"Экология","category2":"Уборка помещений и прилегающей территории","category3":"Уборка прилегающей территории","location":"152 Скотопрогонная ул. 13","address":"152 Скотопрогонная ул. 13","actions":["assignContractor","solveTicket","cancelTicket","cancelTask","inventoryNumberChange","slaDateChange","specialistDateChange","comment"]},{"id":150685,"parentId":150685,"externalId":"TSK_1800000","header":"Нет вывоза ТБО","text":"testdescriptiontest","priority":"Низкий","createDate":1511190000000,"lastEditDate":1575473430061,"state":"Выполняется","stateId":1,"viewed":true,"syncMask":"PORTAL_ONLY","isSpecialistDate":false,"ticketState":"Выполняется","ticketStateId":1,"inventoryNumber":"000007","applicant":{"fullName":"Алексей Карчевский","userName":"master","email":"a.karchevski@pflb.ru","location":"142784, г.Москва, Киевское шоссе, 22-й км,\nБП ComCity, домовл.6, стр.1","phone":"8 (000) 123-45-67","mobilePhone":"8 (000) 123-45-67","id":106},"contractor":{"id":9,"name":"2-Ремонт","organization":"Холодильное оборудование","company":"YYY","active":true},"categories":["Экология","Вывоз мусора","Нарушение графика вывоза мусора"],"category1":"Экология","category2":"Вывоз мусора","category3":"Нарушение графика вывоза мусора","location":"Барклая 24","address":"Барклая 24","actions":["assignContractor","solveTicket","cancelTicket","cancelTask","inventoryNumberChange","slaDateChange","specialistDateChange","comment"]},{"id":150684,"parentId":150684,"externalId":"TSK_1800000","header":"Cломана крышка контейнера","text":"testdescriptiontest","priority":"Низкий","createDate":1511190000000,"lastEditDate":1575473427930,"state":"Выполняется","stateId":1,"syncMask":"PORTAL_ONLY","isSpecialistDate":false,"ticketState":"Выполняется","ticketStateId":1,"applicant":{"fullName":"Алексей Карчевский","userName":"master","email":"a.karchevski@pflb.ru","location":"142784, г.Москва, Киевское шоссе, 22-й км,\nБП ComCity, домовл.6, стр.1","phone":"8 (000) 123-45-67","mobilePhone":"8 (000) 123-45-67","id":106},"contractor":{"id":9,"name":"2-Ремонт","organization":"Холодильное оборудование","company":"YYY","active":true},"categories":["Экология","Вывоз мусора","Ремонт и дезинфекция контейнера"],"category1":"Экология","category2":"Вывоз мусора","category3":"Ремонт и дезинфекция контейнера","location":"default location","address":"default location","actions":["assignContractor","solveTicket","cancelTicket","cancelTask","inventoryNumberChange","slaDateChange","specialistDateChange","comment"]}],"last":false,"totalElements":344,"totalPages":35,"size":10,"number":0,"sort":[{"direction":"DESC","property":"id","ignoreCase":false,"nullHandling":"NATIVE","ascending":false,"descending":true}],"numberOfElements":10,"first":true}