{"content":[{"id":149781,"applicant":{"fullName":"Алексей Карчевский","userName":"master","email":"a.karchevski@pflb.ru","location":"142784, г.Москва, Киевское шоссе, 22-й км,\nБП ComCity, домовл.6, стр.1","phone":"8 (000) 123-45-67","mobilePhone":"8 (000) 123-45-67","id":106},"header":"Очистка кровли от снега и наледи","text":"Ogdanets text 3","createDate":1575042650832,"lastEditDate":1575042650836,"ticketState":"Новый","ticketStateId":-1,"serviceId":2793,"syncMask":"PORTAL_ONLY","location":"default location","address":"default location","categories":["Экология","Уборка помещений и прилегающей территории","Уборка прилегающей территории"],"category1":"Экология","category2":"Уборка помещений и прилегающей территории","category3":"Уборка прилегающей территории","openCommunications":0,"totalCommunications":0,"actions":[]},{"id":149780,"applicant":{"fullName":"Алексей Карчевский","userName":"master","email":"a.karchevski@pflb.ru","location":"142784, г.Москва, Киевское шоссе, 22-й км,\nБП ComCity, домовл.6, стр.1","phone":"8 (000) 123-45-67","mobilePhone":"8 (000) 123-45-67","id":106},"header":"Нагреваются в рабочем режиме","text":"Ogdanets text 1","createDate":1575042643568,"lastEditDate":1575042643572,"ticketState":"Новый","ticketStateId":-1,"serviceId":2835,"syncMask":"PORTAL_ONLY","location":"256 Бинарная ул. 16","address":"256 Бинарная ул. 16","categories":["Инженерия","Электрооборудование","Электророзетки, выключатели"],"category1":"Инженерия","category2":"Электрооборудование","category3":"Электророзетки, выключатели","openCommunications":0,"totalCommunications":0,"actions":[]},{"id":149779,"applicant":{"fullName":"Алексей Карчевский","userName":"master","email":"a.karchevski@pflb.ru","location":"142784, г.Москва, Киевское шоссе, 22-й км,\nБП ComCity, домовл.6, стр.1","phone":"8 (000) 123-45-67","mobilePhone":"8 (000) 123-45-67","id":106},"header":"Удаление граффити с фасада здания с применением специализированных средств","text":"Ogdanets text 5","createDate":1575042636770,"lastEditDate":1575042636773,"ticketState":"Новый","ticketStateId":-1,"serviceId":2790,"syncMask":"PORTAL_ONLY","location":"256 Бинарная ул. 16","address":"256 Бинарная ул. 16","categories":["Экология","Уборка помещений и прилегающей территории","Уборка прилегающей территории"],"category1":"Экология","category2":"Уборка помещений и прилегающей территории","category3":"Уборка прилегающей территории","openCommunications":0,"totalCommunications":0,"actions":[]},{"id":149778,"applicant":{"fullName":"Алексей Карчевский","userName":"master","email":"a.karchevski@pflb.ru","location":"142784, г.Москва, Киевское шоссе, 22-й км,\nБП ComCity, домовл.6, стр.1","phone":"8 (000) 123-45-67","mobilePhone":"8 (000) 123-45-67","id":106},"director":{"fullName":"Васильев Павел1","userName":"director_1","email":"director@mail.com","location":"location","address":"152 Скотопрогонная ул. 13","phone":"+79778334486","mobilePhone":"8 (000) 123-45-67","workPhone":"+79778334486","organization":"organization","id":101122},"header":"Попытка вскрытия рольставни/механические повреждения","text":"Ogdanets text 3","createDate":1575042629693,"lastEditDate":1575042629697,"ticketState":"Новый","ticketStateId":-1,"serviceId":2946,"syncMask":"PORTAL_ONLY","location":"152 Скотопрогонная ул. 13","address":"152 Скотопрогонная ул. 13","categories":["Технологическое оборудование","Автоматические  ворота и двери","Рольставни"],"category1":"Технологическое оборудование","category2":"Автоматические  ворота и двери","category3":"Рольставни","openCommunications":0,"totalCommunications":0,"actions":[]},{"id":149777,"applicant":{"fullName":"Алексей Карчевский","userName":"master","email":"a.karchevski@pflb.ru","location":"142784, г.Москва, Киевское шоссе, 22-й км,\nБП ComCity, домовл.6, стр.1","phone":"8 (000) 123-45-67","mobilePhone":"8 (000) 123-45-67","id":106},"header":"Наличие пыли, посторонних предметов, не исправные замки или их отсутствие на шкафах","text":"Ogdanets text 4","createDate":1575042626073,"lastEditDate":1575042626077,"ticketState":"Новый","ticketStateId":-1,"serviceId":2828,"syncMask":"PORTAL_ONLY","location":"default location","address":"default location","categories":["Инженерия","Электрооборудование","Электрощитовая"],"category1":"Инженерия","category2":"Электрооборудование","category3":"Электрощитовая","openCommunications":0,"totalCommunications":0,"actions":[]},{"id":149776,"applicant":{"fullName":"Алексей Карчевский","userName":"master","email":"a.karchevski@pflb.ru","location":"142784, г.Москва, Киевское шоссе, 22-й км,\nБП ComCity, домовл.6, стр.1","phone":"8 (000) 123-45-67","mobilePhone":"8 (000) 123-45-67","id":106},"director":{"fullName":"Васильев Павел1","userName":"director_1","email":"director@mail.com","location":"location","address":"152 Скотопрогонная ул. 13","phone":"+79778334486","mobilePhone":"8 (000) 123-45-67","workPhone":"+79778334486","organization":"organization","id":101122},"header":"Запах газа","text":"Ogdanets text 3","createDate":1575042619146,"lastEditDate":1575042619150,"ticketState":"Новый","ticketStateId":-1,"serviceId":2842,"syncMask":"PORTAL_ONLY","location":"152 Скотопрогонная ул. 13","address":"152 Скотопрогонная ул. 13","categories":["Инженерия","Газовое оборудование","Газовое оборудование"],"category1":"Инженерия","category2":"Газовое оборудование","category3":"Газовое оборудование","openCommunications":0,"totalCommunications":0,"actions":[]},{"id":149775,"applicant":{"fullName":"Алексей Карчевский","userName":"master","email":"a.karchevski@pflb.ru","location":"142784, г.Москва, Киевское шоссе, 22-й км,\nБП ComCity, домовл.6, стр.1","phone":"8 (000) 123-45-67","mobilePhone":"8 (000) 123-45-67","id":106},"director":{"fullName":"Васильев Павел1","userName":"director_1","email":"director@mail.com","location":"location","address":"152 Скотопрогонная ул. 13","phone":"+79778334486","mobilePhone":"8 (000) 123-45-67","workPhone":"+79778334486","organization":"organization","id":101122},"header":"Пресс не пресует","text":"Ogdanets text 5","createDate":1575042611880,"lastEditDate":1575042611884,"ticketState":"Новый","ticketStateId":-1,"serviceId":2905,"syncMask":"PORTAL_ONLY","location":"152 Скотопрогонная ул. 13","address":"152 Скотопрогонная ул. 13","categories":["Технологическое оборудование","Инженерное оборудование","Пресс"],"category1":"Технологическое оборудование","category2":"Инженерное оборудование","category3":"Пресс","openCommunications":0,"totalCommunications":0,"actions":[]},{"id":149774,"applicant":{"fullName":"Алексей Карчевский","userName":"master","email":"a.karchevski@pflb.ru","location":"142784, г.Москва, Киевское шоссе, 22-й км,\nБП ComCity, домовл.6, стр.1","phone":"8 (000) 123-45-67","mobilePhone":"8 (000) 123-45-67","id":106},"header":"Холодильник издает посторонние звуки","text":"Ogdanets text 3","createDate":1575042608180,"lastEditDate":1575042608184,"ticketState":"Новый","ticketStateId":-1,"serviceId":2970,"syncMask":"PORTAL_ONLY","location":"default location","address":"default location","categories":["Технологическое оборудование","Холодильное оборудование","Икорный/Бытовой холодильник"],"category1":"Технологическое оборудование","category2":"Холодильное оборудование","category3":"Икорный/Бытовой холодильник","openCommunications":0,"totalCommunications":0,"actions":[]},{"id":149773,"applicant":{"fullName":"Алексей Карчевский","userName":"master","email":"a.karchevski@pflb.ru","location":"142784, г.Москва, Киевское шоссе, 22-й км,\nБП ComCity, домовл.6, стр.1","phone":"8 (000) 123-45-67","mobilePhone":"8 (000) 123-45-67","id":106},"header":"В холодильнике не горит свет","text":"Ogdanets text 4","createDate":1575042427488,"lastEditDate":1575042427492,"ticketState":"Выполняется","ticketStateId":1,"serviceId":2976,"syncMask":"PORTAL_ONLY","location":"256 Бинарная ул. 16","address":"256 Бинарная ул. 16","taskId":149773,"taskState":"Решена","taskStateId":2,"categories":["Технологическое оборудование","Холодильное оборудование","Холодильная пристенная горка"],"category1":"Технологическое оборудование","category2":"Холодильное оборудование","category3":"Холодильная пристенная горка","canBeCanceled":true,"openCommunications":0,"totalCommunications":0,"actions":["solveTicket","cancelTicket","inventoryNumberChange","slaDateChange","comment"]},{"id":149772,"applicant":{"fullName":"Алексей Карчевский","userName":"master","email":"a.karchevski@pflb.ru","location":"142784, г.Москва, Киевское шоссе, 22-й км,\nБП ComCity, домовл.6, стр.1","phone":"8 (000) 123-45-67","mobilePhone":"8 (000) 123-45-67","id":106},"director":{"fullName":"Васильев Павел1","userName":"director_1","email":"director@mail.com","location":"location","address":"152 Скотопрогонная ул. 13","phone":"+79778334486","mobilePhone":"8 (000) 123-45-67","workPhone":"+79778334486","organization":"organization","id":101122},"header":"Тепловая завеса издает посторонние звуки/запахи","text":"Ogdanets text 1","createDate":1575042420756,"lastEditDate":1575042420760,"ticketState":"Выполняется","ticketStateId":1,"serviceId":2910,"syncMask":"PORTAL_ONLY","location":"152 Скотопрогонная ул. 13","address":"152 Скотопрогонная ул. 13","taskId":149772,"taskState":"Решена","taskStateId":2,"categories":["Технологическое оборудование","Инженерное оборудование","Тепловая завеса"],"category1":"Технологическое оборудование","category2":"Инженерное оборудование","category3":"Тепловая завеса","canBeCanceled":true,"openCommunications":0,"totalCommunications":0,"actions":["solveTicket","cancelTicket","inventoryNumberChange","slaDateChange","comment"]}],"last":false,"totalElements":620,"totalPages":62,"size":10,"number":0,"sort":[{"direction":"DESC","property":"id","ignoreCase":false,"nullHandling":"NATIVE","ascending":false,"descending":true}],"numberOfElements":10,"first":true}